\relax 
\providecommand\hyper@newdestlabel[2]{}
\providecommand\HyperFirstAtBeginDocument{\AtBeginDocument}
\HyperFirstAtBeginDocument{\ifx\hyper@anchor\@undefined
\global\let\oldcontentsline\contentsline
\gdef\contentsline#1#2#3#4{\oldcontentsline{#1}{#2}{#3}}
\global\let\oldnewlabel\newlabel
\gdef\newlabel#1#2{\newlabelxx{#1}#2}
\gdef\newlabelxx#1#2#3#4#5#6{\oldnewlabel{#1}{{#2}{#3}}}
\AtEndDocument{\ifx\hyper@anchor\@undefined
\let\contentsline\oldcontentsline
\let\newlabel\oldnewlabel
\fi}
\fi}
\global\let\hyper@last\relax 
\gdef\HyperFirstAtBeginDocument#1{#1}
\providecommand\HyField@AuxAddToFields[1]{}
\providecommand\HyField@AuxAddToCoFields[2]{}
\newlabel{e311}{{{E3.1.1}}{1}{}{AMS.1}{}}
\@writefile{lof}{\contentsline {figure}{\numberline {1}{\ignorespaces Feasible set}}{2}{figure.1}}
\newlabel{fig1}{{1}{2}{Feasible set}{figure.1}{}}
\newlabel{e321}{{{E3.2.1}}{3}{}{AMS.3}{}}
\newlabel{e322}{{{E3.2.2}}{3}{}{AMS.4}{}}
\newlabel{e323}{{{E3.2.3}}{3}{}{AMS.5}{}}
\newlabel{e324}{{{E3.2.4}}{3}{}{AMS.6}{}}
\newlabel{e325}{{{E3.2.5}}{3}{}{AMS.7}{}}
\newlabel{e326}{{{E3.2.6}}{3}{}{AMS.8}{}}
\newlabel{e327}{{{E3.2.7}}{3}{}{AMS.9}{}}
\newlabel{tocindent-1}{0pt}
\newlabel{tocindent0}{0pt}
\newlabel{tocindent1}{0pt}
\newlabel{tocindent2}{0pt}
\newlabel{tocindent3}{0pt}
