\relax 
\providecommand\hyper@newdestlabel[2]{}
\providecommand\HyperFirstAtBeginDocument{\AtBeginDocument}
\HyperFirstAtBeginDocument{\ifx\hyper@anchor\@undefined
\global\let\oldcontentsline\contentsline
\gdef\contentsline#1#2#3#4{\oldcontentsline{#1}{#2}{#3}}
\global\let\oldnewlabel\newlabel
\gdef\newlabel#1#2{\newlabelxx{#1}#2}
\gdef\newlabelxx#1#2#3#4#5#6{\oldnewlabel{#1}{{#2}{#3}}}
\AtEndDocument{\ifx\hyper@anchor\@undefined
\let\contentsline\oldcontentsline
\let\newlabel\oldnewlabel
\fi}
\fi}
\global\let\hyper@last\relax 
\gdef\HyperFirstAtBeginDocument#1{#1}
\providecommand\HyField@AuxAddToFields[1]{}
\providecommand\HyField@AuxAddToCoFields[2]{}
\newlabel{7.2.1}{{{P}}{1}{}{AMS.1}{}}
\newlabel{7.2.2}{{{P'}}{1}{}{AMS.2}{}}
\newlabel{7.2.3}{{{D}}{1}{}{AMS.3}{}}
\newlabel{7.2.4}{{{D'}}{1}{}{AMS.4}{}}
\newlabel{7.2.5}{{{Q}}{1}{}{AMS.5}{}}
\newlabel{7.2.6}{{{M}}{2}{}{AMS.6}{}}
\newlabel{7.2.7}{{{N}}{2}{}{AMS.7}{}}
\newlabel{7.2.8}{{{R}}{2}{}{AMS.8}{}}
\@writefile{lof}{\contentsline {figure}{\numberline {1}{\ignorespaces $\lambda _k = \frac  {1}{k||\mathaccentV {hat}05E{\gamma }^{(k)}||_2}$.}}{3}{figure.1}}
\newlabel{fig1}{{1}{3}{$\lambda _k = \frac {1}{k||\hat {\gamma }^{(k)}||_2}$}{figure.1}{}}
\@writefile{lof}{\contentsline {figure}{\numberline {2}{\ignorespaces $\lambda _k = \genfrac  {}{}{}0{|\frac  {15}{v(\mathaccentV {hat}05E{y}^{(k)})}-1|}{k||\mathaccentV {hat}05E{\gamma }^{(k)}||_2}$.}}{4}{figure.2}}
\newlabel{fig2}{{2}{4}{$\lambda _k = \dfrac {|\frac {15}{v(\hat {y}^{(k)})}-1|}{k||\hat {\gamma }^{(k)}||_2}$}{figure.2}{}}
\@writefile{lof}{\contentsline {figure}{\numberline {3}{\ignorespaces $\lambda _k = \genfrac  {}{}{}0{|\frac  {15.3}{v(\mathaccentV {hat}05E{y}^{(k)})}-1|}{k||\mathaccentV {hat}05E{\gamma }^{(k)}||_2}$.}}{5}{figure.3}}
\newlabel{fig3}{{3}{5}{$\lambda _k = \dfrac {|\frac {15.3}{v(\hat {y}^{(k)})}-1|}{k||\hat {\gamma }^{(k)}||_2}$}{figure.3}{}}
\newlabel{tocindent-1}{0pt}
\newlabel{tocindent0}{0pt}
\newlabel{tocindent1}{0pt}
\newlabel{tocindent2}{0pt}
\newlabel{tocindent3}{0pt}
