%!PS-Adobe-3.0 EPSF-3.0
%%Creator: (MATLAB, The Mathworks, Inc. Version 9.1.0.441655 \(R2016b\). Operating System: Mac OS X)
%%Title: (/Users/naumansohani/Google Drive/IOE 510/nsohani_HW_6/fig1.eps)
%%CreationDate: 2017-03-24T04:03:02
%%Pages: (atend)
%%BoundingBox: 0 0 560 420
%%LanguageLevel: 3
%%EndComments
%%BeginProlog
%%BeginResource: procset (Apache XML Graphics Std ProcSet) 1.2 0
%%Version: 1.2 0
%%Copyright: (Copyright 2001-2003,2010 The Apache Software Foundation. License terms: http://www.apache.org/licenses/LICENSE-2.0)
/bd{bind def}bind def
/ld{load def}bd
/GR/grestore ld
/M/moveto ld
/LJ/setlinejoin ld
/C/curveto ld
/f/fill ld
/LW/setlinewidth ld
/GC/setgray ld
/t/show ld
/N/newpath ld
/CT/concat ld
/cp/closepath ld
/S/stroke ld
/L/lineto ld
/CC/setcmykcolor ld
/A/ashow ld
/GS/gsave ld
/RC/setrgbcolor ld
/RM/rmoveto ld
/ML/setmiterlimit ld
/re {4 2 roll M
1 index 0 rlineto
0 exch rlineto
neg 0 rlineto
cp } bd
/_ctm matrix def
/_tm matrix def
/BT { _ctm currentmatrix pop matrix _tm copy pop 0 0 moveto } bd
/ET { _ctm setmatrix } bd
/iTm { _ctm setmatrix _tm concat } bd
/Tm { _tm astore pop iTm 0 0 moveto } bd
/ux 0.0 def
/uy 0.0 def
/F {
  /Tp exch def
  /Tf exch def
  Tf findfont Tp scalefont setfont
  /cf Tf def  /cs Tp def
} bd
/ULS {currentpoint /uy exch def /ux exch def} bd
/ULE {
  /Tcx currentpoint pop def
  gsave
  newpath
  cf findfont cs scalefont dup
  /FontMatrix get 0 get /Ts exch def /FontInfo get dup
  /UnderlinePosition get Ts mul /To exch def
  /UnderlineThickness get Ts mul /Tt exch def
  ux uy To add moveto  Tcx uy To add lineto
  Tt setlinewidth stroke
  grestore
} bd
/OLE {
  /Tcx currentpoint pop def
  gsave
  newpath
  cf findfont cs scalefont dup
  /FontMatrix get 0 get /Ts exch def /FontInfo get dup
  /UnderlinePosition get Ts mul /To exch def
  /UnderlineThickness get Ts mul /Tt exch def
  ux uy To add cs add moveto Tcx uy To add cs add lineto
  Tt setlinewidth stroke
  grestore
} bd
/SOE {
  /Tcx currentpoint pop def
  gsave
  newpath
  cf findfont cs scalefont dup
  /FontMatrix get 0 get /Ts exch def /FontInfo get dup
  /UnderlinePosition get Ts mul /To exch def
  /UnderlineThickness get Ts mul /Tt exch def
  ux uy To add cs 10 mul 26 idiv add moveto Tcx uy To add cs 10 mul 26 idiv add lineto
  Tt setlinewidth stroke
  grestore
} bd
/QT {
/Y22 exch store
/X22 exch store
/Y21 exch store
/X21 exch store
currentpoint
/Y21 load 2 mul add 3 div exch
/X21 load 2 mul add 3 div exch
/X21 load 2 mul /X22 load add 3 div
/Y21 load 2 mul /Y22 load add 3 div
/X22 load /Y22 load curveto
} bd
/SSPD {
dup length /d exch dict def
{
/v exch def
/k exch def
currentpagedevice k known {
/cpdv currentpagedevice k get def
v cpdv ne {
/upd false def
/nullv v type /nulltype eq def
/nullcpdv cpdv type /nulltype eq def
nullv nullcpdv or
{
/upd true def
} {
/sametype v type cpdv type eq def
sametype {
v type /arraytype eq {
/vlen v length def
/cpdvlen cpdv length def
vlen cpdvlen eq {
0 1 vlen 1 sub {
/i exch def
/obj v i get def
/cpdobj cpdv i get def
obj cpdobj ne {
/upd true def
exit
} if
} for
} {
/upd true def
} ifelse
} {
v type /dicttype eq {
v {
/dv exch def
/dk exch def
/cpddv cpdv dk get def
dv cpddv ne {
/upd true def
exit
} if
} forall
} {
/upd true def
} ifelse
} ifelse
} if
} ifelse
upd true eq {
d k v put
} if
} if
} if
} forall
d length 0 gt {
d setpagedevice
} if
} bd
/RE { % /NewFontName [NewEncodingArray] /FontName RE -
  findfont dup length dict begin
  {
    1 index /FID ne
    {def} {pop pop} ifelse
  } forall
  /Encoding exch def
  /FontName 1 index def
  currentdict definefont pop
  end
} bind def
%%EndResource
%%BeginResource: procset (Apache XML Graphics EPS ProcSet) 1.0 0
%%Version: 1.0 0
%%Copyright: (Copyright 2002-2003 The Apache Software Foundation. License terms: http://www.apache.org/licenses/LICENSE-2.0)
/BeginEPSF { %def
/b4_Inc_state save def         % Save state for cleanup
/dict_count countdictstack def % Count objects on dict stack
/op_count count 1 sub def      % Count objects on operand stack
userdict begin                 % Push userdict on dict stack
/showpage { } def              % Redefine showpage, { } = null proc
0 setgray 0 setlinecap         % Prepare graphics state
1 setlinewidth 0 setlinejoin
10 setmiterlimit [ ] 0 setdash newpath
/languagelevel where           % If level not equal to 1 then
{pop languagelevel             % set strokeadjust and
1 ne                           % overprint to their defaults.
{false setstrokeadjust false setoverprint
} if
} if
} bd
/EndEPSF { %def
count op_count sub {pop} repeat            % Clean up stacks
countdictstack dict_count sub {end} repeat
b4_Inc_state restore
} bd
%%EndResource
%FOPBeginFontDict
%%IncludeResource: font Courier-Bold
%%IncludeResource: font Helvetica
%%IncludeResource: font Courier-BoldOblique
%%IncludeResource: font Courier-Oblique
%%IncludeResource: font Times-Roman
%%IncludeResource: font Helvetica-BoldOblique
%%IncludeResource: font Helvetica-Bold
%%IncludeResource: font Helvetica-Oblique
%%IncludeResource: font Times-BoldItalic
%%IncludeResource: font Courier
%%IncludeResource: font Times-Italic
%%IncludeResource: font Times-Bold
%%IncludeResource: font Symbol
%%IncludeResource: font ZapfDingbats
%FOPEndFontDict
%%BeginResource: encoding WinAnsiEncoding
/WinAnsiEncoding [
/.notdef /.notdef /.notdef /.notdef /.notdef
/.notdef /.notdef /.notdef /.notdef /.notdef
/.notdef /.notdef /.notdef /.notdef /.notdef
/.notdef /.notdef /.notdef /.notdef /.notdef
/.notdef /.notdef /.notdef /.notdef /.notdef
/.notdef /.notdef /.notdef /.notdef /.notdef
/.notdef /.notdef /space /exclam /quotedbl
/numbersign /dollar /percent /ampersand /quotesingle
/parenleft /parenright /asterisk /plus /comma
/hyphen /period /slash /zero /one
/two /three /four /five /six
/seven /eight /nine /colon /semicolon
/less /equal /greater /question /at
/A /B /C /D /E
/F /G /H /I /J
/K /L /M /N /O
/P /Q /R /S /T
/U /V /W /X /Y
/Z /bracketleft /backslash /bracketright /asciicircum
/underscore /quoteleft /a /b /c
/d /e /f /g /h
/i /j /k /l /m
/n /o /p /q /r
/s /t /u /v /w
/x /y /z /braceleft /bar
/braceright /asciitilde /bullet /Euro /bullet
/quotesinglbase /florin /quotedblbase /ellipsis /dagger
/daggerdbl /circumflex /perthousand /Scaron /guilsinglleft
/OE /bullet /Zcaron /bullet /bullet
/quoteleft /quoteright /quotedblleft /quotedblright /bullet
/endash /emdash /asciitilde /trademark /scaron
/guilsinglright /oe /bullet /zcaron /Ydieresis
/space /exclamdown /cent /sterling /currency
/yen /brokenbar /section /dieresis /copyright
/ordfeminine /guillemotleft /logicalnot /sfthyphen /registered
/macron /degree /plusminus /twosuperior /threesuperior
/acute /mu /paragraph /middot /cedilla
/onesuperior /ordmasculine /guillemotright /onequarter /onehalf
/threequarters /questiondown /Agrave /Aacute /Acircumflex
/Atilde /Adieresis /Aring /AE /Ccedilla
/Egrave /Eacute /Ecircumflex /Edieresis /Igrave
/Iacute /Icircumflex /Idieresis /Eth /Ntilde
/Ograve /Oacute /Ocircumflex /Otilde /Odieresis
/multiply /Oslash /Ugrave /Uacute /Ucircumflex
/Udieresis /Yacute /Thorn /germandbls /agrave
/aacute /acircumflex /atilde /adieresis /aring
/ae /ccedilla /egrave /eacute /ecircumflex
/edieresis /igrave /iacute /icircumflex /idieresis
/eth /ntilde /ograve /oacute /ocircumflex
/otilde /odieresis /divide /oslash /ugrave
/uacute /ucircumflex /udieresis /yacute /thorn
/ydieresis
] def
%%EndResource
%FOPBeginFontReencode
/Courier-Bold findfont
dup length dict begin
  {1 index /FID ne {def} {pop pop} ifelse} forall
  /Encoding WinAnsiEncoding def
  currentdict
end
/Courier-Bold exch definefont pop
/Helvetica findfont
dup length dict begin
  {1 index /FID ne {def} {pop pop} ifelse} forall
  /Encoding WinAnsiEncoding def
  currentdict
end
/Helvetica exch definefont pop
/Courier-BoldOblique findfont
dup length dict begin
  {1 index /FID ne {def} {pop pop} ifelse} forall
  /Encoding WinAnsiEncoding def
  currentdict
end
/Courier-BoldOblique exch definefont pop
/Courier-Oblique findfont
dup length dict begin
  {1 index /FID ne {def} {pop pop} ifelse} forall
  /Encoding WinAnsiEncoding def
  currentdict
end
/Courier-Oblique exch definefont pop
/Times-Roman findfont
dup length dict begin
  {1 index /FID ne {def} {pop pop} ifelse} forall
  /Encoding WinAnsiEncoding def
  currentdict
end
/Times-Roman exch definefont pop
/Helvetica-BoldOblique findfont
dup length dict begin
  {1 index /FID ne {def} {pop pop} ifelse} forall
  /Encoding WinAnsiEncoding def
  currentdict
end
/Helvetica-BoldOblique exch definefont pop
/Helvetica-Bold findfont
dup length dict begin
  {1 index /FID ne {def} {pop pop} ifelse} forall
  /Encoding WinAnsiEncoding def
  currentdict
end
/Helvetica-Bold exch definefont pop
/Helvetica-Oblique findfont
dup length dict begin
  {1 index /FID ne {def} {pop pop} ifelse} forall
  /Encoding WinAnsiEncoding def
  currentdict
end
/Helvetica-Oblique exch definefont pop
/Times-BoldItalic findfont
dup length dict begin
  {1 index /FID ne {def} {pop pop} ifelse} forall
  /Encoding WinAnsiEncoding def
  currentdict
end
/Times-BoldItalic exch definefont pop
/Courier findfont
dup length dict begin
  {1 index /FID ne {def} {pop pop} ifelse} forall
  /Encoding WinAnsiEncoding def
  currentdict
end
/Courier exch definefont pop
/Times-Italic findfont
dup length dict begin
  {1 index /FID ne {def} {pop pop} ifelse} forall
  /Encoding WinAnsiEncoding def
  currentdict
end
/Times-Italic exch definefont pop
/Times-Bold findfont
dup length dict begin
  {1 index /FID ne {def} {pop pop} ifelse} forall
  /Encoding WinAnsiEncoding def
  currentdict
end
/Times-Bold exch definefont pop
%FOPEndFontReencode
%%EndProlog
%%Page: 1 1
%%PageBoundingBox: 0 0 560 420
%%BeginPageSetup
[1 0 0 -1 0 420] CT
%%EndPageSetup
GS
1 GC
N
0 0 560 420 re
f
GR
GS
1 GC
N
0 0 560 420 re
f
GR
GS
1 GC
N
73 374 M
507 374 L
507 31 L
73 31 L
cp
f
GR
GS
0.873 GC
1 LJ
0.5 LW
N
73 374 M
73 31 L
S
GR
GS
0.873 GC
1 LJ
0.5 LW
N
116.4 374 M
116.4 31 L
S
GR
GS
0.873 GC
1 LJ
0.5 LW
N
159.8 374 M
159.8 31 L
S
GR
GS
0.873 GC
1 LJ
0.5 LW
N
203.2 374 M
203.2 31 L
S
GR
GS
0.873 GC
1 LJ
0.5 LW
N
246.6 374 M
246.6 31 L
S
GR
GS
0.873 GC
1 LJ
0.5 LW
N
290 374 M
290 31 L
S
GR
GS
0.873 GC
1 LJ
0.5 LW
N
333.4 374 M
333.4 31 L
S
GR
GS
0.873 GC
1 LJ
0.5 LW
N
376.8 374 M
376.8 31 L
S
GR
GS
0.873 GC
1 LJ
0.5 LW
N
420.2 374 M
420.2 31 L
S
GR
GS
0.873 GC
1 LJ
0.5 LW
N
463.6 374 M
463.6 31 L
S
GR
GS
0.873 GC
1 LJ
0.5 LW
N
507 374 M
507 31 L
S
GR
GS
0.873 GC
1 LJ
0.5 LW
N
507 374 M
73 374 L
S
GR
GS
0.873 GC
1 LJ
0.5 LW
N
507 325 M
73 325 L
S
GR
GS
0.873 GC
1 LJ
0.5 LW
N
507 276 M
73 276 L
S
GR
GS
0.873 GC
1 LJ
0.5 LW
N
507 227 M
73 227 L
S
GR
GS
0.873 GC
1 LJ
0.5 LW
N
507 178 M
73 178 L
S
GR
GS
0.873 GC
1 LJ
0.5 LW
N
507 129 M
73 129 L
S
GR
GS
0.873 GC
1 LJ
0.5 LW
N
507 80 M
73 80 L
S
GR
GS
0.873 GC
1 LJ
0.5 LW
N
507 31 M
73 31 L
S
GR
GS
0.149 GC
2 setlinecap
1 LJ
0.5 LW
N
73 374 M
507 374 L
S
GR
GS
0.149 GC
2 setlinecap
1 LJ
0.5 LW
N
73 31 M
507 31 L
S
GR
GS
0.149 GC
2 setlinecap
1 LJ
0.5 LW
N
73 374 M
73 369.66 L
S
GR
GS
0.149 GC
2 setlinecap
1 LJ
0.5 LW
N
116.4 374 M
116.4 369.66 L
S
GR
GS
0.149 GC
2 setlinecap
1 LJ
0.5 LW
N
159.8 374 M
159.8 369.66 L
S
GR
GS
0.149 GC
2 setlinecap
1 LJ
0.5 LW
N
203.2 374 M
203.2 369.66 L
S
GR
GS
0.149 GC
2 setlinecap
1 LJ
0.5 LW
N
246.6 374 M
246.6 369.66 L
S
GR
GS
0.149 GC
2 setlinecap
1 LJ
0.5 LW
N
290 374 M
290 369.66 L
S
GR
GS
0.149 GC
2 setlinecap
1 LJ
0.5 LW
N
333.4 374 M
333.4 369.66 L
S
GR
GS
0.149 GC
2 setlinecap
1 LJ
0.5 LW
N
376.8 374 M
376.8 369.66 L
S
GR
GS
0.149 GC
2 setlinecap
1 LJ
0.5 LW
N
420.2 374 M
420.2 369.66 L
S
GR
GS
0.149 GC
2 setlinecap
1 LJ
0.5 LW
N
463.6 374 M
463.6 369.66 L
S
GR
GS
0.149 GC
2 setlinecap
1 LJ
0.5 LW
N
507 374 M
507 369.66 L
S
GR
GS
0.149 GC
2 setlinecap
1 LJ
0.5 LW
N
73 31 M
73 35.34 L
S
GR
GS
0.149 GC
2 setlinecap
1 LJ
0.5 LW
N
116.4 31 M
116.4 35.34 L
S
GR
GS
0.149 GC
2 setlinecap
1 LJ
0.5 LW
N
159.8 31 M
159.8 35.34 L
S
GR
GS
0.149 GC
2 setlinecap
1 LJ
0.5 LW
N
203.2 31 M
203.2 35.34 L
S
GR
GS
0.149 GC
2 setlinecap
1 LJ
0.5 LW
N
246.6 31 M
246.6 35.34 L
S
GR
GS
0.149 GC
2 setlinecap
1 LJ
0.5 LW
N
290 31 M
290 35.34 L
S
GR
GS
0.149 GC
2 setlinecap
1 LJ
0.5 LW
N
333.4 31 M
333.4 35.34 L
S
GR
GS
0.149 GC
2 setlinecap
1 LJ
0.5 LW
N
376.8 31 M
376.8 35.34 L
S
GR
GS
0.149 GC
2 setlinecap
1 LJ
0.5 LW
N
420.2 31 M
420.2 35.34 L
S
GR
GS
0.149 GC
2 setlinecap
1 LJ
0.5 LW
N
463.6 31 M
463.6 35.34 L
S
GR
GS
0.149 GC
2 setlinecap
1 LJ
0.5 LW
N
507 31 M
507 35.34 L
S
GR
GS
[1 0 0 1 73 378] CT
0.149 GC
/Helvetica 10 F
GS
[1 0 0 1 0 0] CT
-8 10 moveto 
1 -1 scale
(-70) t 
GR
GR
GS
[1 0 0 1 116.4 378] CT
0.149 GC
/Helvetica 10 F
GS
[1 0 0 1 0 0] CT
-8 10 moveto 
1 -1 scale
(-60) t 
GR
GR
GS
[1 0 0 1 159.8 378] CT
0.149 GC
/Helvetica 10 F
GS
[1 0 0 1 0 0] CT
-8 10 moveto 
1 -1 scale
(-50) t 
GR
GR
GS
[1 0 0 1 203.2 378] CT
0.149 GC
/Helvetica 10 F
GS
[1 0 0 1 0 0] CT
-8 10 moveto 
1 -1 scale
(-40) t 
GR
GR
GS
[1 0 0 1 246.60001 378] CT
0.149 GC
/Helvetica 10 F
GS
[1 0 0 1 0 0] CT
-8 10 moveto 
1 -1 scale
(-30) t 
GR
GR
GS
[1 0 0 1 290 378] CT
0.149 GC
/Helvetica 10 F
GS
[1 0 0 1 0 0] CT
-8 10 moveto 
1 -1 scale
(-20) t 
GR
GR
GS
[1 0 0 1 333.39999 378] CT
0.149 GC
/Helvetica 10 F
GS
[1 0 0 1 0 0] CT
-8 10 moveto 
1 -1 scale
(-10) t 
GR
GR
GS
[1 0 0 1 376.79999 378] CT
0.149 GC
/Helvetica 10 F
GS
[1 0 0 1 0 0] CT
-3 10 moveto 
1 -1 scale
(0) t 
GR
GR
GS
[1 0 0 1 420.20001 378] CT
0.149 GC
/Helvetica 10 F
GS
[1 0 0 1 0 0] CT
-6 10 moveto 
1 -1 scale
(10) t 
GR
GR
GS
[1 0 0 1 463.60001 378] CT
0.149 GC
/Helvetica 10 F
GS
[1 0 0 1 0 0] CT
-6 10 moveto 
1 -1 scale
(20) t 
GR
GR
GS
[1 0 0 1 507 378] CT
0.149 GC
/Helvetica 10 F
GS
[1 0 0 1 0 0] CT
-6 10 moveto 
1 -1 scale
(30) t 
GR
GR
GS
0.149 GC
2 setlinecap
1 LJ
0.5 LW
N
73 374 M
73 31 L
S
GR
GS
0.149 GC
2 setlinecap
1 LJ
0.5 LW
N
507 374 M
507 31 L
S
GR
GS
0.149 GC
2 setlinecap
1 LJ
0.5 LW
N
73 374 M
77.34 374 L
S
GR
GS
0.149 GC
2 setlinecap
1 LJ
0.5 LW
N
73 325 M
77.34 325 L
S
GR
GS
0.149 GC
2 setlinecap
1 LJ
0.5 LW
N
73 276 M
77.34 276 L
S
GR
GS
0.149 GC
2 setlinecap
1 LJ
0.5 LW
N
73 227 M
77.34 227 L
S
GR
GS
0.149 GC
2 setlinecap
1 LJ
0.5 LW
N
73 178 M
77.34 178 L
S
GR
GS
0.149 GC
2 setlinecap
1 LJ
0.5 LW
N
73 129 M
77.34 129 L
S
GR
GS
0.149 GC
2 setlinecap
1 LJ
0.5 LW
N
73 80 M
77.34 80 L
S
GR
GS
0.149 GC
2 setlinecap
1 LJ
0.5 LW
N
73 31 M
77.34 31 L
S
GR
GS
0.149 GC
2 setlinecap
1 LJ
0.5 LW
N
507 374 M
502.66 374 L
S
GR
GS
0.149 GC
2 setlinecap
1 LJ
0.5 LW
N
507 325 M
502.66 325 L
S
GR
GS
0.149 GC
2 setlinecap
1 LJ
0.5 LW
N
507 276 M
502.66 276 L
S
GR
GS
0.149 GC
2 setlinecap
1 LJ
0.5 LW
N
507 227 M
502.66 227 L
S
GR
GS
0.149 GC
2 setlinecap
1 LJ
0.5 LW
N
507 178 M
502.66 178 L
S
GR
GS
0.149 GC
2 setlinecap
1 LJ
0.5 LW
N
507 129 M
502.66 129 L
S
GR
GS
0.149 GC
2 setlinecap
1 LJ
0.5 LW
N
507 80 M
502.66 80 L
S
GR
GS
0.149 GC
2 setlinecap
1 LJ
0.5 LW
N
507 31 M
502.66 31 L
S
GR
GS
[1 0 0 1 68.99999 374] CT
0.149 GC
/Helvetica 10 F
GS
[1 0 0 1 0 0] CT
-6 3.5 moveto 
1 -1 scale
(0) t 
GR
GR
GS
[1 0 0 1 68.99999 325] CT
0.149 GC
/Helvetica 10 F
GS
[1 0 0 1 0 0] CT
-12 3.5 moveto 
1 -1 scale
(50) t 
GR
GR
GS
[1 0 0 1 68.99999 276] CT
0.149 GC
/Helvetica 10 F
GS
[1 0 0 1 0 0] CT
-17 3.5 moveto 
1 -1 scale
(100) t 
GR
GR
GS
[1 0 0 1 68.99999 227] CT
0.149 GC
/Helvetica 10 F
GS
[1 0 0 1 0 0] CT
-17 3.5 moveto 
1 -1 scale
(150) t 
GR
GR
GS
[1 0 0 1 68.99999 178] CT
0.149 GC
/Helvetica 10 F
GS
[1 0 0 1 0 0] CT
-17 3.5 moveto 
1 -1 scale
(200) t 
GR
GR
GS
[1 0 0 1 68.99999 129] CT
0.149 GC
/Helvetica 10 F
GS
[1 0 0 1 0 0] CT
-17 3.5 moveto 
1 -1 scale
(250) t 
GR
GR
GS
[1 0 0 1 68.99999 80] CT
0.149 GC
/Helvetica 10 F
GS
[1 0 0 1 0 0] CT
-17 3.5 moveto 
1 -1 scale
(300) t 
GR
GR
GS
[1 0 0 1 68.99999 31] CT
0.149 GC
/Helvetica 10 F
GS
[1 0 0 1 0 0] CT
-17 3.5 moveto 
1 -1 scale
(350) t 
GR
GR
GS
[0 -1 1 0 49 202.49983] CT
0.149 GC
N
-42 -4.884 M
-42.844 -4.884 -43.563 -5.313 QT
-44.281 -5.743 -44.695 -6.462 QT
-45.109 -7.181 -45.109 -8.024 QT
-45.109 -8.665 -44.883 -9.259 QT
-44.656 -9.853 -44.227 -10.321 QT
-43.797 -10.79 -43.227 -11.056 QT
-42.656 -11.321 -42 -11.321 QT
-41.141 -11.321 -40.43 -10.86 QT
-39.719 -10.399 -39.313 -9.642 QT
-38.906 -8.884 -38.906 -8.024 QT
-38.906 -7.181 -39.32 -6.462 QT
-39.734 -5.743 -40.453 -5.313 QT
-41.172 -4.884 -42 -4.884 QT
cp
-42 -5.29 M
-40.875 -5.29 -40.5 -6.103 QT
-40.125 -6.915 -40.125 -8.181 QT
-40.125 -8.884 -40.203 -9.345 QT
-40.281 -9.806 -40.531 -10.181 QT
-40.688 -10.415 -40.93 -10.587 QT
-41.172 -10.759 -41.445 -10.853 QT
-41.719 -10.946 -42 -10.946 QT
-42.438 -10.946 -42.828 -10.751 QT
-43.219 -10.556 -43.484 -10.181 QT
-43.75 -9.79 -43.82 -9.313 QT
-43.891 -8.837 -43.891 -8.181 QT
-43.891 -7.399 -43.75 -6.767 QT
-43.609 -6.134 -43.195 -5.712 QT
-42.781 -5.29 -42 -5.29 QT
cp
f
GR
GS
[0 -1 1 0 49 202.49983] CT
0.149 GC
N
-37.047 -5.04 M
-37.047 -13.321 L
-37.047 -13.696 -37.156 -13.868 QT
-37.266 -14.04 -37.477 -14.079 QT
-37.688 -14.118 -38.141 -14.118 QT
-38.141 -14.603 L
-36.063 -14.759 L
-36.063 -10.368 L
-35.828 -10.634 -35.524 -10.829 QT
-35.219 -11.024 -34.859 -11.126 QT
-34.5 -11.228 -34.125 -11.228 QT
-33.5 -11.228 -32.961 -10.978 QT
-32.422 -10.728 -32.031 -10.282 QT
-31.641 -9.837 -31.414 -9.259 QT
-31.188 -8.681 -31.188 -8.056 QT
-31.188 -7.212 -31.602 -6.485 QT
-32.016 -5.759 -32.734 -5.321 QT
-33.453 -4.884 -34.297 -4.884 QT
-34.828 -4.884 -35.328 -5.157 QT
-35.828 -5.431 -36.156 -5.884 QT
-36.641 -5.04 L
-37.047 -5.04 L
cp
-36.031 -6.415 M
-35.797 -5.899 -35.359 -5.579 QT
-34.922 -5.259 -34.391 -5.259 QT
-33.656 -5.259 -33.211 -5.673 QT
-32.766 -6.087 -32.586 -6.72 QT
-32.406 -7.353 -32.406 -8.056 QT
-32.406 -9.243 -32.719 -9.853 QT
-32.859 -10.134 -33.094 -10.368 QT
-33.328 -10.603 -33.617 -10.735 QT
-33.906 -10.868 -34.234 -10.868 QT
-34.781 -10.868 -35.266 -10.571 QT
-35.75 -10.274 -36.031 -9.774 QT
-36.031 -6.415 L
cp
f
GR
GS
[0 -1 1 0 49 202.49983] CT
0.149 GC
N
-29.663 -2.681 M
-29.335 -2.524 -28.945 -2.524 QT
-28.382 -2.524 -28.171 -3.095 QT
-27.96 -3.665 -27.96 -4.321 QT
-27.96 -9.806 L
-27.96 -10.181 -28.093 -10.345 QT
-28.226 -10.509 -28.46 -10.548 QT
-28.695 -10.587 -29.163 -10.587 QT
-29.163 -11.071 L
-26.976 -11.228 L
-26.976 -4.259 L
-26.976 -3.712 -27.241 -3.228 QT
-27.507 -2.743 -27.968 -2.454 QT
-28.429 -2.165 -28.96 -2.165 QT
-29.57 -2.165 -30.062 -2.47 QT
-30.554 -2.774 -30.554 -3.321 QT
-30.554 -3.587 -30.359 -3.79 QT
-30.163 -3.993 -29.882 -3.993 QT
-29.616 -3.993 -29.421 -3.79 QT
-29.226 -3.587 -29.226 -3.321 QT
-29.226 -3.103 -29.343 -2.923 QT
-29.46 -2.743 -29.663 -2.681 QT
cp
-28.523 -13.634 M
-28.523 -13.946 -28.288 -14.173 QT
-28.054 -14.399 -27.741 -14.399 QT
-27.554 -14.399 -27.366 -14.298 QT
-27.179 -14.196 -27.077 -14.017 QT
-26.976 -13.837 -26.976 -13.634 QT
-26.976 -13.337 -27.202 -13.103 QT
-27.429 -12.868 -27.741 -12.868 QT
-28.054 -12.868 -28.288 -13.103 QT
-28.523 -13.337 -28.523 -13.634 QT
cp
f
GR
GS
[0 -1 1 0 49 202.49983] CT
0.149 GC
N
-22.182 -4.884 M
-23.042 -4.884 -23.753 -5.329 QT
-24.464 -5.774 -24.87 -6.524 QT
-25.276 -7.274 -25.276 -8.103 QT
-25.276 -8.931 -24.901 -9.665 QT
-24.526 -10.399 -23.862 -10.86 QT
-23.198 -11.321 -22.385 -11.321 QT
-21.729 -11.321 -21.26 -11.103 QT
-20.792 -10.884 -20.479 -10.501 QT
-20.167 -10.118 -20.01 -9.603 QT
-19.854 -9.087 -19.854 -8.462 QT
-19.854 -8.274 -19.995 -8.274 QT
-24.057 -8.274 L
-24.057 -8.118 L
-24.057 -6.962 -23.589 -6.126 QT
-23.12 -5.29 -22.057 -5.29 QT
-21.62 -5.29 -21.26 -5.485 QT
-20.901 -5.681 -20.628 -6.017 QT
-20.354 -6.353 -20.26 -6.743 QT
-20.245 -6.79 -20.206 -6.829 QT
-20.167 -6.868 -20.12 -6.868 QT
-19.995 -6.868 L
-19.854 -6.868 -19.854 -6.696 QT
-20.057 -5.899 -20.714 -5.392 QT
-21.37 -4.884 -22.182 -4.884 QT
cp
-24.042 -8.618 M
-20.854 -8.618 L
-20.854 -9.149 -20.995 -9.688 QT
-21.135 -10.228 -21.479 -10.587 QT
-21.823 -10.946 -22.385 -10.946 QT
-23.167 -10.946 -23.604 -10.204 QT
-24.042 -9.462 -24.042 -8.618 QT
cp
f
GR
GS
[0 -1 1 0 49 202.49983] CT
0.149 GC
N
-15.96 -4.884 M
-16.804 -4.884 -17.491 -5.321 QT
-18.179 -5.759 -18.577 -6.493 QT
-18.976 -7.228 -18.976 -8.056 QT
-18.976 -8.884 -18.585 -9.642 QT
-18.194 -10.399 -17.499 -10.86 QT
-16.804 -11.321 -15.96 -11.321 QT
-15.132 -11.321 -14.46 -11.001 QT
-13.788 -10.681 -13.788 -9.946 QT
-13.788 -9.665 -13.984 -9.462 QT
-14.179 -9.259 -14.46 -9.259 QT
-14.741 -9.259 -14.937 -9.462 QT
-15.132 -9.665 -15.132 -9.946 QT
-15.132 -10.181 -14.976 -10.368 QT
-14.819 -10.556 -14.585 -10.603 QT
-15.069 -10.899 -15.944 -10.899 QT
-16.616 -10.899 -17.023 -10.462 QT
-17.429 -10.024 -17.593 -9.368 QT
-17.757 -8.712 -17.757 -8.056 QT
-17.757 -7.384 -17.562 -6.751 QT
-17.366 -6.118 -16.913 -5.704 QT
-16.46 -5.29 -15.788 -5.29 QT
-15.116 -5.29 -14.655 -5.696 QT
-14.194 -6.103 -14.023 -6.759 QT
-14.023 -6.853 -13.913 -6.853 QT
-13.741 -6.853 L
-13.694 -6.853 -13.663 -6.813 QT
-13.632 -6.774 -13.632 -6.728 QT
-13.632 -6.681 L
-13.851 -5.853 -14.476 -5.368 QT
-15.101 -4.884 -15.96 -4.884 QT
cp
f
GR
GS
[0 -1 1 0 49 202.49983] CT
0.149 GC
N
-11.8 -6.728 M
-11.8 -10.587 L
-12.957 -10.587 L
-12.957 -10.946 L
-12.035 -10.946 -11.605 -11.798 QT
-11.175 -12.649 -11.175 -13.649 QT
-10.769 -13.649 L
-10.769 -11.071 L
-8.8 -11.071 L
-8.8 -10.587 L
-10.769 -10.587 L
-10.769 -6.743 L
-10.769 -6.165 -10.574 -5.728 QT
-10.379 -5.29 -9.879 -5.29 QT
-9.394 -5.29 -9.183 -5.751 QT
-8.972 -6.212 -8.972 -6.743 QT
-8.972 -7.571 L
-8.566 -7.571 L
-8.566 -6.728 L
-8.566 -6.29 -8.73 -5.86 QT
-8.894 -5.431 -9.207 -5.157 QT
-9.519 -4.884 -9.972 -4.884 QT
-10.816 -4.884 -11.308 -5.384 QT
-11.8 -5.884 -11.8 -6.728 QT
cp
f
GR
GS
[0 -1 1 0 49 202.49983] CT
0.149 GC
N
-7.34 -5.04 M
-7.34 -5.54 L
-6.872 -5.54 -6.559 -5.61 QT
-6.247 -5.681 -6.247 -5.978 QT
-6.247 -9.806 L
-6.247 -10.337 -6.457 -10.462 QT
-6.668 -10.587 -7.278 -10.587 QT
-7.278 -11.071 L
-5.262 -11.228 L
-5.262 -5.978 L
-5.262 -5.681 -4.997 -5.61 QT
-4.731 -5.54 -4.293 -5.54 QT
-4.293 -5.04 L
-7.34 -5.04 L
cp
-6.747 -13.634 M
-6.747 -13.946 -6.52 -14.173 QT
-6.293 -14.399 -5.981 -14.399 QT
-5.793 -14.399 -5.606 -14.298 QT
-5.418 -14.196 -5.317 -14.017 QT
-5.215 -13.837 -5.215 -13.634 QT
-5.215 -13.337 -5.45 -13.103 QT
-5.684 -12.868 -5.981 -12.868 QT
-6.293 -12.868 -6.52 -13.103 QT
-6.747 -13.337 -6.747 -13.634 QT
cp
f
GR
GS
[0 -1 1 0 49 202.49983] CT
0.149 GC
N
-0.467 -5.04 M
-2.514 -10.181 L
-2.639 -10.446 -2.912 -10.517 QT
-3.186 -10.587 -3.623 -10.587 QT
-3.623 -11.071 L
-0.686 -11.071 L
-0.686 -10.587 L
-1.467 -10.587 -1.467 -10.243 QT
-1.467 -10.196 -1.451 -10.165 QT
0.111 -6.212 L
1.533 -9.79 L
1.58 -9.899 1.58 -10.009 QT
1.58 -10.274 1.377 -10.431 QT
1.174 -10.587 0.892 -10.587 QT
0.892 -11.071 L
3.22 -11.071 L
3.22 -10.587 L
2.783 -10.587 2.463 -10.384 QT
2.142 -10.181 1.97 -9.806 QT
0.08 -5.04 L
0.017 -4.884 -0.155 -4.884 QT
-0.248 -4.884 L
-0.42 -4.884 -0.467 -5.04 QT
cp
f
GR
GS
[0 -1 1 0 49 202.49983] CT
0.149 GC
N
6.595 -4.884 M
5.736 -4.884 5.025 -5.329 QT
4.314 -5.774 3.908 -6.524 QT
3.502 -7.274 3.502 -8.103 QT
3.502 -8.931 3.877 -9.665 QT
4.252 -10.399 4.916 -10.86 QT
5.58 -11.321 6.392 -11.321 QT
7.049 -11.321 7.517 -11.103 QT
7.986 -10.884 8.299 -10.501 QT
8.611 -10.118 8.767 -9.603 QT
8.924 -9.087 8.924 -8.462 QT
8.924 -8.274 8.783 -8.274 QT
4.72 -8.274 L
4.72 -8.118 L
4.72 -6.962 5.189 -6.126 QT
5.658 -5.29 6.72 -5.29 QT
7.158 -5.29 7.517 -5.485 QT
7.877 -5.681 8.15 -6.017 QT
8.424 -6.353 8.517 -6.743 QT
8.533 -6.79 8.572 -6.829 QT
8.611 -6.868 8.658 -6.868 QT
8.783 -6.868 L
8.924 -6.868 8.924 -6.696 QT
8.72 -5.899 8.064 -5.392 QT
7.408 -4.884 6.595 -4.884 QT
cp
4.736 -8.618 M
7.924 -8.618 L
7.924 -9.149 7.783 -9.688 QT
7.642 -10.228 7.299 -10.587 QT
6.955 -10.946 6.392 -10.946 QT
5.611 -10.946 5.174 -10.204 QT
4.736 -9.462 4.736 -8.618 QT
cp
f
GR
GS
[0 -1 1 0 49 202.49983] CT
0.149 GC
N
17.422 -5.04 M
15.375 -10.181 L
15.25 -10.446 14.977 -10.517 QT
14.703 -10.587 14.266 -10.587 QT
14.266 -11.071 L
17.203 -11.071 L
17.203 -10.587 L
16.422 -10.587 16.422 -10.243 QT
16.422 -10.196 16.438 -10.165 QT
18 -6.212 L
19.422 -9.79 L
19.469 -9.899 19.469 -10.009 QT
19.469 -10.274 19.266 -10.431 QT
19.063 -10.587 18.781 -10.587 QT
18.781 -11.071 L
21.109 -11.071 L
21.109 -10.587 L
20.672 -10.587 20.352 -10.384 QT
20.031 -10.181 19.859 -9.806 QT
17.969 -5.04 L
17.906 -4.884 17.734 -4.884 QT
17.641 -4.884 L
17.469 -4.884 17.422 -5.04 QT
cp
f
GR
GS
[0 -1 1 0 49 202.49983] CT
0.149 GC
N
21.174 -6.415 M
21.174 -7.243 21.83 -7.767 QT
22.486 -8.29 23.408 -8.509 QT
24.33 -8.728 25.158 -8.728 QT
25.158 -9.306 L
25.158 -9.696 24.978 -10.079 QT
24.799 -10.462 24.463 -10.704 QT
24.127 -10.946 23.721 -10.946 QT
22.799 -10.946 22.314 -10.524 QT
22.58 -10.524 22.752 -10.329 QT
22.924 -10.134 22.924 -9.853 QT
22.924 -9.587 22.728 -9.384 QT
22.533 -9.181 22.252 -9.181 QT
21.971 -9.181 21.775 -9.384 QT
21.58 -9.587 21.58 -9.853 QT
21.58 -10.603 22.244 -10.962 QT
22.908 -11.321 23.721 -11.321 QT
24.283 -11.321 24.861 -11.079 QT
25.439 -10.837 25.806 -10.384 QT
26.174 -9.931 26.174 -9.321 QT
26.174 -6.181 L
26.174 -5.899 26.291 -5.673 QT
26.408 -5.446 26.642 -5.446 QT
26.877 -5.446 26.994 -5.681 QT
27.111 -5.915 27.111 -6.181 QT
27.111 -7.071 L
27.517 -7.071 L
27.517 -6.181 L
27.517 -5.868 27.353 -5.579 QT
27.189 -5.29 26.908 -5.126 QT
26.627 -4.962 26.314 -4.962 QT
25.908 -4.962 25.611 -5.274 QT
25.314 -5.587 25.267 -6.024 QT
25.017 -5.509 24.51 -5.196 QT
24.002 -4.884 23.424 -4.884 QT
22.892 -4.884 22.377 -5.04 QT
21.861 -5.196 21.517 -5.532 QT
21.174 -5.868 21.174 -6.415 QT
cp
22.314 -6.415 M
22.314 -5.915 22.674 -5.587 QT
23.033 -5.259 23.517 -5.259 QT
23.971 -5.259 24.346 -5.478 QT
24.721 -5.696 24.939 -6.087 QT
25.158 -6.478 25.158 -6.915 QT
25.158 -8.368 L
24.517 -8.368 23.853 -8.157 QT
23.189 -7.946 22.752 -7.509 QT
22.314 -7.071 22.314 -6.415 QT
cp
f
GR
GS
[0 -1 1 0 49 202.49983] CT
0.149 GC
N
28.049 -5.04 M
28.049 -5.54 L
28.517 -5.54 28.83 -5.61 QT
29.142 -5.681 29.142 -5.978 QT
29.142 -13.321 L
29.142 -13.696 29.025 -13.868 QT
28.908 -14.04 28.697 -14.079 QT
28.486 -14.118 28.049 -14.118 QT
28.049 -14.603 L
30.127 -14.759 L
30.127 -5.978 L
30.127 -5.681 30.431 -5.61 QT
30.736 -5.54 31.205 -5.54 QT
31.205 -5.04 L
28.049 -5.04 L
cp
f
GR
GS
[0 -1 1 0 49 202.49983] CT
0.149 GC
N
33.016 -6.712 M
33.016 -9.806 L
33.016 -10.181 32.898 -10.345 QT
32.781 -10.509 32.57 -10.548 QT
32.359 -10.587 31.922 -10.587 QT
31.922 -11.071 L
34.031 -11.228 L
34.031 -6.712 L
34.031 -6.165 34.109 -5.86 QT
34.188 -5.556 34.445 -5.407 QT
34.703 -5.259 35.266 -5.259 QT
36.016 -5.259 36.461 -5.884 QT
36.906 -6.509 36.906 -7.306 QT
36.906 -9.806 L
36.906 -10.181 36.789 -10.345 QT
36.672 -10.509 36.469 -10.548 QT
36.266 -10.587 35.813 -10.587 QT
35.813 -11.071 L
37.922 -11.228 L
37.922 -6.306 L
37.922 -5.946 38.039 -5.774 QT
38.156 -5.603 38.367 -5.571 QT
38.578 -5.54 39.016 -5.54 QT
39.016 -5.04 L
36.953 -4.884 L
36.953 -6.071 L
36.688 -5.54 36.227 -5.212 QT
35.766 -4.884 35.203 -4.884 QT
34.188 -4.884 33.602 -5.313 QT
33.016 -5.743 33.016 -6.712 QT
cp
f
GR
GS
[0 -1 1 0 49 202.49983] CT
0.149 GC
N
42.762 -4.884 M
41.903 -4.884 41.192 -5.329 QT
40.481 -5.774 40.075 -6.524 QT
39.668 -7.274 39.668 -8.103 QT
39.668 -8.931 40.043 -9.665 QT
40.418 -10.399 41.083 -10.86 QT
41.747 -11.321 42.559 -11.321 QT
43.215 -11.321 43.684 -11.103 QT
44.153 -10.884 44.465 -10.501 QT
44.778 -10.118 44.934 -9.603 QT
45.09 -9.087 45.09 -8.462 QT
45.09 -8.274 44.95 -8.274 QT
40.887 -8.274 L
40.887 -8.118 L
40.887 -6.962 41.356 -6.126 QT
41.825 -5.29 42.887 -5.29 QT
43.325 -5.29 43.684 -5.485 QT
44.043 -5.681 44.317 -6.017 QT
44.59 -6.353 44.684 -6.743 QT
44.7 -6.79 44.739 -6.829 QT
44.778 -6.868 44.825 -6.868 QT
44.95 -6.868 L
45.09 -6.868 45.09 -6.696 QT
44.887 -5.899 44.231 -5.392 QT
43.575 -4.884 42.762 -4.884 QT
cp
40.903 -8.618 M
44.09 -8.618 L
44.09 -9.149 43.95 -9.688 QT
43.809 -10.228 43.465 -10.587 QT
43.122 -10.946 42.559 -10.946 QT
41.778 -10.946 41.34 -10.204 QT
40.903 -9.462 40.903 -8.618 QT
cp
f
GR
GS
[1 0 0 1 290.00027 27.49999] CT
N
-61.965 -4.884 M
-62.809 -4.884 -63.285 -5.548 QT
-63.762 -6.212 -63.762 -7.103 QT
-63.762 -7.228 -63.692 -7.61 QT
-63.621 -7.993 -63.621 -8.071 QT
-62.277 -13.509 L
-62.215 -13.743 -62.199 -13.884 QT
-62.199 -14.118 -63.121 -14.118 QT
-63.246 -14.118 -63.246 -14.29 QT
-63.246 -14.337 -63.223 -14.423 QT
-63.199 -14.509 -63.16 -14.556 QT
-63.121 -14.603 -63.059 -14.603 QT
-61.168 -14.759 L
-60.996 -14.759 -60.996 -14.571 QT
-62.027 -10.446 L
-61.246 -11.228 -60.434 -11.228 QT
-59.84 -11.228 -59.41 -10.915 QT
-58.981 -10.603 -58.77 -10.087 QT
-58.559 -9.571 -58.559 -8.993 QT
-58.559 -8.321 -58.824 -7.595 QT
-59.09 -6.868 -59.551 -6.251 QT
-60.012 -5.634 -60.637 -5.259 QT
-61.262 -4.884 -61.965 -4.884 QT
cp
-61.934 -5.259 M
-61.465 -5.259 -61.043 -5.657 QT
-60.621 -6.056 -60.371 -6.556 QT
-60.09 -7.118 -59.848 -8.079 QT
-59.606 -9.04 -59.606 -9.603 QT
-59.606 -10.103 -59.809 -10.485 QT
-60.012 -10.868 -60.465 -10.868 QT
-60.981 -10.868 -61.442 -10.493 QT
-61.902 -10.118 -62.246 -9.603 QT
-62.637 -8.024 L
-62.856 -7.134 -62.871 -6.603 QT
-62.871 -6.087 -62.645 -5.673 QT
-62.418 -5.259 -61.934 -5.259 QT
cp
f
GR
GS
[1 0 0 1 290.00027 27.49999] CT
N
-57.597 -3.659 M
-57.597 -3.846 -57.519 -4.049 QT
-56.707 -6.206 L
-56.582 -6.565 -56.582 -6.799 QT
-56.582 -7.096 -56.8 -7.096 QT
-57.191 -7.096 -57.449 -6.69 QT
-57.707 -6.284 -57.832 -5.784 QT
-57.847 -5.721 -57.91 -5.721 QT
-58.019 -5.721 L
-58.113 -5.721 -58.113 -5.815 QT
-58.113 -5.846 L
-57.941 -6.44 -57.613 -6.901 QT
-57.285 -7.362 -56.769 -7.362 QT
-56.425 -7.362 -56.175 -7.128 QT
-55.925 -6.893 -55.925 -6.534 QT
-55.925 -6.346 -56.003 -6.143 QT
-56.816 -3.987 L
-56.957 -3.659 -56.957 -3.393 QT
-56.957 -3.096 -56.722 -3.096 QT
-56.332 -3.096 -56.074 -3.51 QT
-55.816 -3.924 -55.707 -4.409 QT
-55.691 -4.471 -55.628 -4.471 QT
-55.503 -4.471 L
-55.472 -4.471 -55.449 -4.44 QT
-55.425 -4.409 -55.425 -4.378 QT
-55.425 -4.378 -55.425 -4.346 QT
-55.566 -3.784 -55.902 -3.307 QT
-56.238 -2.831 -56.753 -2.831 QT
-57.097 -2.831 -57.347 -3.073 QT
-57.597 -3.315 -57.597 -3.659 QT
cp
-56.472 -9.003 M
-56.472 -9.206 -56.293 -9.378 QT
-56.113 -9.549 -55.91 -9.549 QT
-55.738 -9.549 -55.628 -9.448 QT
-55.519 -9.346 -55.519 -9.174 QT
-55.519 -8.956 -55.699 -8.784 QT
-55.878 -8.612 -56.082 -8.612 QT
-56.253 -8.612 -56.363 -8.729 QT
-56.472 -8.846 -56.472 -9.003 QT
cp
f
GR
GS
[1 0 0 1 290.00027 27.49999] CT
N
-46.214 -5.04 M
-48.261 -10.181 L
-48.386 -10.446 -48.659 -10.517 QT
-48.932 -10.587 -49.37 -10.587 QT
-49.37 -11.071 L
-46.432 -11.071 L
-46.432 -10.587 L
-47.214 -10.587 -47.214 -10.243 QT
-47.214 -10.196 -47.198 -10.165 QT
-45.636 -6.212 L
-44.214 -9.79 L
-44.167 -9.899 -44.167 -10.009 QT
-44.167 -10.274 -44.37 -10.431 QT
-44.573 -10.587 -44.854 -10.587 QT
-44.854 -11.071 L
-42.526 -11.071 L
-42.526 -10.587 L
-42.964 -10.587 -43.284 -10.384 QT
-43.604 -10.181 -43.776 -9.806 QT
-45.667 -5.04 L
-45.729 -4.884 -45.901 -4.884 QT
-45.995 -4.884 L
-46.167 -4.884 -46.214 -5.04 QT
cp
f
GR
GS
[1 0 0 1 290.00027 27.49999] CT
N
-41.778 -4.993 M
-41.778 -7.29 L
-41.778 -7.399 -41.653 -7.399 QT
-41.481 -7.399 L
-41.403 -7.399 -41.372 -7.29 QT
-40.981 -5.259 -39.497 -5.259 QT
-38.825 -5.259 -38.38 -5.556 QT
-37.934 -5.853 -37.934 -6.478 QT
-37.934 -6.931 -38.286 -7.251 QT
-38.637 -7.571 -39.106 -7.681 QT
-40.044 -7.868 L
-40.512 -7.978 -40.903 -8.188 QT
-41.294 -8.399 -41.536 -8.751 QT
-41.778 -9.103 -41.778 -9.571 QT
-41.778 -10.181 -41.458 -10.571 QT
-41.137 -10.962 -40.614 -11.142 QT
-40.09 -11.321 -39.497 -11.321 QT
-38.778 -11.321 -38.247 -10.931 QT
-37.84 -11.274 L
-37.84 -11.321 -37.762 -11.321 QT
-37.669 -11.321 L
-37.622 -11.321 -37.59 -11.282 QT
-37.559 -11.243 -37.559 -11.196 QT
-37.559 -9.368 L
-37.559 -9.243 -37.669 -9.243 QT
-37.84 -9.243 L
-37.965 -9.243 -37.965 -9.368 QT
-37.965 -10.103 -38.372 -10.548 QT
-38.778 -10.993 -39.512 -10.993 QT
-40.137 -10.993 -40.598 -10.759 QT
-41.059 -10.524 -41.059 -9.962 QT
-41.059 -9.571 -40.723 -9.321 QT
-40.387 -9.071 -39.95 -8.962 QT
-38.997 -8.774 L
-38.528 -8.665 -38.114 -8.407 QT
-37.7 -8.149 -37.458 -7.751 QT
-37.215 -7.353 -37.215 -6.853 QT
-37.215 -6.353 -37.387 -5.978 QT
-37.559 -5.603 -37.872 -5.36 QT
-38.184 -5.118 -38.606 -5.001 QT
-39.028 -4.884 -39.497 -4.884 QT
-40.372 -4.884 -40.981 -5.478 QT
-41.497 -4.915 L
-41.497 -4.884 -41.575 -4.884 QT
-41.653 -4.884 L
-41.778 -4.884 -41.778 -4.993 QT
cp
f
GR
GS
[1 0 0 1 290.00027 27.49999] CT
N
-35.553 -5.806 M
-35.553 -6.134 -35.318 -6.353 QT
-35.084 -6.571 -34.771 -6.571 QT
-34.584 -6.571 -34.396 -6.47 QT
-34.209 -6.368 -34.107 -6.188 QT
-34.006 -6.009 -34.006 -5.806 QT
-34.006 -5.509 -34.232 -5.274 QT
-34.459 -5.04 -34.771 -5.04 QT
-35.084 -5.04 -35.318 -5.274 QT
-35.553 -5.509 -35.553 -5.806 QT
cp
f
GR
GS
[1 0 0 1 290.00027 27.49999] CT
N
-23.113 -4.884 M
-23.957 -4.884 -24.676 -5.313 QT
-25.395 -5.743 -25.809 -6.462 QT
-26.223 -7.181 -26.223 -8.024 QT
-26.223 -8.665 -25.996 -9.259 QT
-25.77 -9.853 -25.34 -10.321 QT
-24.91 -10.79 -24.34 -11.056 QT
-23.77 -11.321 -23.113 -11.321 QT
-22.254 -11.321 -21.543 -10.86 QT
-20.832 -10.399 -20.426 -9.642 QT
-20.02 -8.884 -20.02 -8.024 QT
-20.02 -7.181 -20.434 -6.462 QT
-20.848 -5.743 -21.566 -5.313 QT
-22.285 -4.884 -23.113 -4.884 QT
cp
-23.113 -5.29 M
-21.988 -5.29 -21.613 -6.103 QT
-21.238 -6.915 -21.238 -8.181 QT
-21.238 -8.884 -21.316 -9.345 QT
-21.395 -9.806 -21.645 -10.181 QT
-21.801 -10.415 -22.043 -10.587 QT
-22.285 -10.759 -22.559 -10.853 QT
-22.832 -10.946 -23.113 -10.946 QT
-23.551 -10.946 -23.941 -10.751 QT
-24.332 -10.556 -24.598 -10.181 QT
-24.863 -9.79 -24.934 -9.313 QT
-25.004 -8.837 -25.004 -8.181 QT
-25.004 -7.399 -24.863 -6.767 QT
-24.723 -6.134 -24.309 -5.712 QT
-23.895 -5.29 -23.113 -5.29 QT
cp
f
GR
GS
[1 0 0 1 290.00027 27.49999] CT
N
-18.16 -5.04 M
-18.16 -13.321 L
-18.16 -13.696 -18.27 -13.868 QT
-18.379 -14.04 -18.59 -14.079 QT
-18.801 -14.118 -19.254 -14.118 QT
-19.254 -14.603 L
-17.176 -14.759 L
-17.176 -10.368 L
-16.941 -10.634 -16.637 -10.829 QT
-16.332 -11.024 -15.973 -11.126 QT
-15.613 -11.228 -15.238 -11.228 QT
-14.613 -11.228 -14.074 -10.978 QT
-13.535 -10.728 -13.145 -10.282 QT
-12.754 -9.837 -12.527 -9.259 QT
-12.301 -8.681 -12.301 -8.056 QT
-12.301 -7.212 -12.715 -6.485 QT
-13.129 -5.759 -13.848 -5.321 QT
-14.566 -4.884 -15.41 -4.884 QT
-15.941 -4.884 -16.441 -5.157 QT
-16.941 -5.431 -17.27 -5.884 QT
-17.754 -5.04 L
-18.16 -5.04 L
cp
-17.145 -6.415 M
-16.91 -5.899 -16.473 -5.579 QT
-16.035 -5.259 -15.504 -5.259 QT
-14.77 -5.259 -14.324 -5.673 QT
-13.879 -6.087 -13.699 -6.72 QT
-13.52 -7.353 -13.52 -8.056 QT
-13.52 -9.243 -13.832 -9.853 QT
-13.973 -10.134 -14.207 -10.368 QT
-14.441 -10.603 -14.731 -10.735 QT
-15.02 -10.868 -15.348 -10.868 QT
-15.895 -10.868 -16.379 -10.571 QT
-16.863 -10.274 -17.145 -9.774 QT
-17.145 -6.415 L
cp
f
GR
GS
[1 0 0 1 290.00027 27.49999] CT
N
-10.777 -2.681 M
-10.448 -2.524 -10.058 -2.524 QT
-9.495 -2.524 -9.284 -3.095 QT
-9.073 -3.665 -9.073 -4.321 QT
-9.073 -9.806 L
-9.073 -10.181 -9.206 -10.345 QT
-9.339 -10.509 -9.573 -10.548 QT
-9.808 -10.587 -10.277 -10.587 QT
-10.277 -11.071 L
-8.089 -11.228 L
-8.089 -4.259 L
-8.089 -3.712 -8.355 -3.228 QT
-8.62 -2.743 -9.081 -2.454 QT
-9.542 -2.165 -10.073 -2.165 QT
-10.683 -2.165 -11.175 -2.47 QT
-11.667 -2.774 -11.667 -3.321 QT
-11.667 -3.587 -11.472 -3.79 QT
-11.277 -3.993 -10.995 -3.993 QT
-10.73 -3.993 -10.534 -3.79 QT
-10.339 -3.587 -10.339 -3.321 QT
-10.339 -3.103 -10.456 -2.923 QT
-10.573 -2.743 -10.777 -2.681 QT
cp
-9.636 -13.634 M
-9.636 -13.946 -9.402 -14.173 QT
-9.167 -14.399 -8.855 -14.399 QT
-8.667 -14.399 -8.48 -14.298 QT
-8.292 -14.196 -8.191 -14.017 QT
-8.089 -13.837 -8.089 -13.634 QT
-8.089 -13.337 -8.316 -13.103 QT
-8.542 -12.868 -8.855 -12.868 QT
-9.167 -12.868 -9.402 -13.103 QT
-9.636 -13.337 -9.636 -13.634 QT
cp
f
GR
GS
[1 0 0 1 290.00027 27.49999] CT
N
-3.296 -4.884 M
-4.155 -4.884 -4.866 -5.329 QT
-5.577 -5.774 -5.983 -6.524 QT
-6.389 -7.274 -6.389 -8.103 QT
-6.389 -8.931 -6.014 -9.665 QT
-5.639 -10.399 -4.975 -10.86 QT
-4.311 -11.321 -3.499 -11.321 QT
-2.842 -11.321 -2.374 -11.103 QT
-1.905 -10.884 -1.592 -10.501 QT
-1.28 -10.118 -1.124 -9.603 QT
-0.967 -9.087 -0.967 -8.462 QT
-0.967 -8.274 -1.108 -8.274 QT
-5.171 -8.274 L
-5.171 -8.118 L
-5.171 -6.962 -4.702 -6.126 QT
-4.233 -5.29 -3.171 -5.29 QT
-2.733 -5.29 -2.374 -5.485 QT
-2.014 -5.681 -1.741 -6.017 QT
-1.467 -6.353 -1.374 -6.743 QT
-1.358 -6.79 -1.319 -6.829 QT
-1.28 -6.868 -1.233 -6.868 QT
-1.108 -6.868 L
-0.967 -6.868 -0.967 -6.696 QT
-1.171 -5.899 -1.827 -5.392 QT
-2.483 -4.884 -3.296 -4.884 QT
cp
-5.155 -8.618 M
-1.967 -8.618 L
-1.967 -9.149 -2.108 -9.688 QT
-2.249 -10.228 -2.592 -10.587 QT
-2.936 -10.946 -3.499 -10.946 QT
-4.28 -10.946 -4.717 -10.204 QT
-5.155 -9.462 -5.155 -8.618 QT
cp
f
GR
GS
[1 0 0 1 290.00027 27.49999] CT
N
2.927 -4.884 M
2.083 -4.884 1.395 -5.321 QT
0.708 -5.759 0.309 -6.493 QT
-0.089 -7.228 -0.089 -8.056 QT
-0.089 -8.884 0.302 -9.642 QT
0.692 -10.399 1.388 -10.86 QT
2.083 -11.321 2.927 -11.321 QT
3.755 -11.321 4.427 -11.001 QT
5.099 -10.681 5.099 -9.946 QT
5.099 -9.665 4.903 -9.462 QT
4.708 -9.259 4.427 -9.259 QT
4.145 -9.259 3.95 -9.462 QT
3.755 -9.665 3.755 -9.946 QT
3.755 -10.181 3.911 -10.368 QT
4.067 -10.556 4.302 -10.603 QT
3.817 -10.899 2.942 -10.899 QT
2.27 -10.899 1.864 -10.462 QT
1.458 -10.024 1.294 -9.368 QT
1.13 -8.712 1.13 -8.056 QT
1.13 -7.384 1.325 -6.751 QT
1.52 -6.118 1.974 -5.704 QT
2.427 -5.29 3.099 -5.29 QT
3.77 -5.29 4.231 -5.696 QT
4.692 -6.103 4.864 -6.759 QT
4.864 -6.853 4.974 -6.853 QT
5.145 -6.853 L
5.192 -6.853 5.224 -6.813 QT
5.255 -6.774 5.255 -6.728 QT
5.255 -6.681 L
5.036 -5.853 4.411 -5.368 QT
3.786 -4.884 2.927 -4.884 QT
cp
f
GR
GS
[1 0 0 1 290.00027 27.49999] CT
N
7.086 -6.728 M
7.086 -10.587 L
5.93 -10.587 L
5.93 -10.946 L
6.852 -10.946 7.282 -11.798 QT
7.711 -12.649 7.711 -13.649 QT
8.118 -13.649 L
8.118 -11.071 L
10.086 -11.071 L
10.086 -10.587 L
8.118 -10.587 L
8.118 -6.743 L
8.118 -6.165 8.313 -5.728 QT
8.508 -5.29 9.008 -5.29 QT
9.493 -5.29 9.704 -5.751 QT
9.914 -6.212 9.914 -6.743 QT
9.914 -7.571 L
10.321 -7.571 L
10.321 -6.728 L
10.321 -6.29 10.157 -5.86 QT
9.993 -5.431 9.68 -5.157 QT
9.368 -4.884 8.914 -4.884 QT
8.071 -4.884 7.579 -5.384 QT
7.086 -5.884 7.086 -6.728 QT
cp
f
GR
GS
[1 0 0 1 290.00027 27.49999] CT
N
11.546 -5.04 M
11.546 -5.54 L
12.015 -5.54 12.328 -5.61 QT
12.64 -5.681 12.64 -5.978 QT
12.64 -9.806 L
12.64 -10.337 12.429 -10.462 QT
12.218 -10.587 11.609 -10.587 QT
11.609 -11.071 L
13.625 -11.228 L
13.625 -5.978 L
13.625 -5.681 13.89 -5.61 QT
14.156 -5.54 14.593 -5.54 QT
14.593 -5.04 L
11.546 -5.04 L
cp
12.14 -13.634 M
12.14 -13.946 12.367 -14.173 QT
12.593 -14.399 12.906 -14.399 QT
13.093 -14.399 13.281 -14.298 QT
13.468 -14.196 13.57 -14.017 QT
13.671 -13.837 13.671 -13.634 QT
13.671 -13.337 13.437 -13.103 QT
13.203 -12.868 12.906 -12.868 QT
12.593 -12.868 12.367 -13.103 QT
12.14 -13.337 12.14 -13.634 QT
cp
f
GR
GS
[1 0 0 1 290.00027 27.49999] CT
N
18.42 -5.04 M
16.373 -10.181 L
16.248 -10.446 15.974 -10.517 QT
15.701 -10.587 15.263 -10.587 QT
15.263 -11.071 L
18.201 -11.071 L
18.201 -10.587 L
17.42 -10.587 17.42 -10.243 QT
17.42 -10.196 17.435 -10.165 QT
18.998 -6.212 L
20.42 -9.79 L
20.467 -9.899 20.467 -10.009 QT
20.467 -10.274 20.263 -10.431 QT
20.06 -10.587 19.779 -10.587 QT
19.779 -11.071 L
22.107 -11.071 L
22.107 -10.587 L
21.67 -10.587 21.349 -10.384 QT
21.029 -10.181 20.857 -9.806 QT
18.967 -5.04 L
18.904 -4.884 18.732 -4.884 QT
18.638 -4.884 L
18.467 -4.884 18.42 -5.04 QT
cp
f
GR
GS
[1 0 0 1 290.00027 27.49999] CT
N
25.482 -4.884 M
24.623 -4.884 23.912 -5.329 QT
23.201 -5.774 22.795 -6.524 QT
22.388 -7.274 22.388 -8.103 QT
22.388 -8.931 22.763 -9.665 QT
23.138 -10.399 23.803 -10.86 QT
24.467 -11.321 25.279 -11.321 QT
25.935 -11.321 26.404 -11.103 QT
26.873 -10.884 27.185 -10.501 QT
27.498 -10.118 27.654 -9.603 QT
27.81 -9.087 27.81 -8.462 QT
27.81 -8.274 27.67 -8.274 QT
23.607 -8.274 L
23.607 -8.118 L
23.607 -6.962 24.076 -6.126 QT
24.545 -5.29 25.607 -5.29 QT
26.045 -5.29 26.404 -5.485 QT
26.763 -5.681 27.037 -6.017 QT
27.31 -6.353 27.404 -6.743 QT
27.42 -6.79 27.459 -6.829 QT
27.498 -6.868 27.545 -6.868 QT
27.67 -6.868 L
27.81 -6.868 27.81 -6.696 QT
27.607 -5.899 26.951 -5.392 QT
26.295 -4.884 25.482 -4.884 QT
cp
23.623 -8.618 M
26.81 -8.618 L
26.81 -9.149 26.67 -9.688 QT
26.529 -10.228 26.185 -10.587 QT
25.842 -10.946 25.279 -10.946 QT
24.498 -10.946 24.06 -10.204 QT
23.623 -9.462 23.623 -8.618 QT
cp
f
GR
GS
[1 0 0 1 290.00027 27.49999] CT
N
36.309 -5.04 M
34.262 -10.181 L
34.137 -10.446 33.863 -10.517 QT
33.59 -10.587 33.152 -10.587 QT
33.152 -11.071 L
36.09 -11.071 L
36.09 -10.587 L
35.309 -10.587 35.309 -10.243 QT
35.309 -10.196 35.324 -10.165 QT
36.887 -6.212 L
38.309 -9.79 L
38.355 -9.899 38.355 -10.009 QT
38.355 -10.274 38.152 -10.431 QT
37.949 -10.587 37.668 -10.587 QT
37.668 -11.071 L
39.996 -11.071 L
39.996 -10.587 L
39.559 -10.587 39.238 -10.384 QT
38.918 -10.181 38.746 -9.806 QT
36.855 -5.04 L
36.793 -4.884 36.621 -4.884 QT
36.527 -4.884 L
36.355 -4.884 36.309 -5.04 QT
cp
f
GR
GS
[1 0 0 1 290.00027 27.49999] CT
N
40.06 -6.415 M
40.06 -7.243 40.717 -7.767 QT
41.373 -8.29 42.295 -8.509 QT
43.217 -8.728 44.045 -8.728 QT
44.045 -9.306 L
44.045 -9.696 43.865 -10.079 QT
43.685 -10.462 43.349 -10.704 QT
43.014 -10.946 42.607 -10.946 QT
41.685 -10.946 41.201 -10.524 QT
41.467 -10.524 41.639 -10.329 QT
41.81 -10.134 41.81 -9.853 QT
41.81 -9.587 41.615 -9.384 QT
41.42 -9.181 41.139 -9.181 QT
40.857 -9.181 40.662 -9.384 QT
40.467 -9.587 40.467 -9.853 QT
40.467 -10.603 41.131 -10.962 QT
41.795 -11.321 42.607 -11.321 QT
43.17 -11.321 43.748 -11.079 QT
44.326 -10.837 44.693 -10.384 QT
45.06 -9.931 45.06 -9.321 QT
45.06 -6.181 L
45.06 -5.899 45.178 -5.673 QT
45.295 -5.446 45.529 -5.446 QT
45.764 -5.446 45.881 -5.681 QT
45.998 -5.915 45.998 -6.181 QT
45.998 -7.071 L
46.404 -7.071 L
46.404 -6.181 L
46.404 -5.868 46.24 -5.579 QT
46.076 -5.29 45.795 -5.126 QT
45.514 -4.962 45.201 -4.962 QT
44.795 -4.962 44.498 -5.274 QT
44.201 -5.587 44.154 -6.024 QT
43.904 -5.509 43.396 -5.196 QT
42.889 -4.884 42.31 -4.884 QT
41.779 -4.884 41.264 -5.04 QT
40.748 -5.196 40.404 -5.532 QT
40.06 -5.868 40.06 -6.415 QT
cp
41.201 -6.415 M
41.201 -5.915 41.56 -5.587 QT
41.92 -5.259 42.404 -5.259 QT
42.857 -5.259 43.232 -5.478 QT
43.607 -5.696 43.826 -6.087 QT
44.045 -6.478 44.045 -6.915 QT
44.045 -8.368 L
43.404 -8.368 42.74 -8.157 QT
42.076 -7.946 41.639 -7.509 QT
41.201 -7.071 41.201 -6.415 QT
cp
f
GR
GS
[1 0 0 1 290.00027 27.49999] CT
N
46.935 -5.04 M
46.935 -5.54 L
47.404 -5.54 47.717 -5.61 QT
48.029 -5.681 48.029 -5.978 QT
48.029 -13.321 L
48.029 -13.696 47.912 -13.868 QT
47.795 -14.04 47.584 -14.079 QT
47.373 -14.118 46.935 -14.118 QT
46.935 -14.603 L
49.014 -14.759 L
49.014 -5.978 L
49.014 -5.681 49.318 -5.61 QT
49.623 -5.54 50.092 -5.54 QT
50.092 -5.04 L
46.935 -5.04 L
cp
f
GR
GS
[1 0 0 1 290.00027 27.49999] CT
N
51.902 -6.712 M
51.902 -9.806 L
51.902 -10.181 51.785 -10.345 QT
51.668 -10.509 51.457 -10.548 QT
51.246 -10.587 50.809 -10.587 QT
50.809 -11.071 L
52.918 -11.228 L
52.918 -6.712 L
52.918 -6.165 52.996 -5.86 QT
53.074 -5.556 53.332 -5.407 QT
53.59 -5.259 54.152 -5.259 QT
54.902 -5.259 55.348 -5.884 QT
55.793 -6.509 55.793 -7.306 QT
55.793 -9.806 L
55.793 -10.181 55.676 -10.345 QT
55.559 -10.509 55.356 -10.548 QT
55.152 -10.587 54.699 -10.587 QT
54.699 -11.071 L
56.809 -11.228 L
56.809 -6.306 L
56.809 -5.946 56.926 -5.774 QT
57.043 -5.603 57.254 -5.571 QT
57.465 -5.54 57.902 -5.54 QT
57.902 -5.04 L
55.84 -4.884 L
55.84 -6.071 L
55.574 -5.54 55.113 -5.212 QT
54.652 -4.884 54.09 -4.884 QT
53.074 -4.884 52.488 -5.313 QT
51.902 -5.743 51.902 -6.712 QT
cp
f
GR
GS
[1 0 0 1 290.00027 27.49999] CT
N
61.649 -4.884 M
60.79 -4.884 60.079 -5.329 QT
59.368 -5.774 58.961 -6.524 QT
58.555 -7.274 58.555 -8.103 QT
58.555 -8.931 58.93 -9.665 QT
59.305 -10.399 59.969 -10.86 QT
60.633 -11.321 61.446 -11.321 QT
62.102 -11.321 62.571 -11.103 QT
63.04 -10.884 63.352 -10.501 QT
63.665 -10.118 63.821 -9.603 QT
63.977 -9.087 63.977 -8.462 QT
63.977 -8.274 63.836 -8.274 QT
59.774 -8.274 L
59.774 -8.118 L
59.774 -6.962 60.243 -6.126 QT
60.711 -5.29 61.774 -5.29 QT
62.211 -5.29 62.571 -5.485 QT
62.93 -5.681 63.204 -6.017 QT
63.477 -6.353 63.571 -6.743 QT
63.586 -6.79 63.626 -6.829 QT
63.665 -6.868 63.711 -6.868 QT
63.836 -6.868 L
63.977 -6.868 63.977 -6.696 QT
63.774 -5.899 63.118 -5.392 QT
62.461 -4.884 61.649 -4.884 QT
cp
59.79 -8.618 M
62.977 -8.618 L
62.977 -9.149 62.836 -9.688 QT
62.696 -10.228 62.352 -10.587 QT
62.008 -10.946 61.446 -10.946 QT
60.665 -10.946 60.227 -10.204 QT
59.79 -9.462 59.79 -8.618 QT
cp
f
GR
GS
0 0 1 RC
1 LJ
2 LW
N
73 196.522 M
75.17 197.919 L
77.34 199.315 L
79.51 200.712 L
81.68 202.108 L
83.85 203.505 L
86.02 204.901 L
88.19 206.298 L
90.36 207.694 L
92.53 209.09 L
94.7 210.487 L
96.87 211.883 L
99.04 213.28 L
101.21 214.423 L
103.38 215.567 L
105.55 216.71 L
107.72 217.853 L
109.89 218.997 L
112.06 220.14 L
114.23 221.283 L
116.4 222.427 L
118.57 223.57 L
120.74 224.713 L
122.91 225.857 L
125.08 227 L
127.25 228.143 L
129.42 229.287 L
131.59 230.43 L
133.76 231.573 L
135.93 232.717 L
138.1 233.86 L
140.27 235.003 L
142.44 236.147 L
144.61 237.29 L
146.78 238.433 L
148.95 239.577 L
151.12 240.72 L
153.29 241.863 L
155.46 243.007 L
157.63 244.15 L
159.8 245.293 L
161.97 246.437 L
164.14 247.58 L
166.31 248.723 L
168.48 249.867 L
170.65 251.01 L
172.82 252.153 L
174.99 253.297 L
177.16 254.44 L
179.33 255.583 L
181.5 256.727 L
183.67 257.87 L
185.84 259.013 L
188.01 260.157 L
190.18 261.3 L
192.35 262.443 L
194.52 263.587 L
196.69 264.73 L
198.86 265.873 L
201.03 267.017 L
203.2 268.16 L
205.37 269.303 L
207.54 270.447 L
209.71 271.59 L
211.88 272.733 L
214.05 273.877 L
216.22 275.02 L
218.39 276.163 L
220.56 277.307 L
222.73 278.45 L
224.9 279.593 L
227.07 280.737 L
229.24 281.88 L
231.41 283.023 L
233.58 284.167 L
235.75 285.31 L
237.92 286.453 L
240.09 287.597 L
242.26 288.74 L
244.43 289.883 L
246.6 291.027 L
248.77 292.17 L
250.94 293.313 L
253.11 294.457 L
255.28 295.6 L
257.45 296.743 L
259.62 297.887 L
261.79 299.03 L
263.96 300.173 L
266.13 301.317 L
268.3 302.46 L
270.47 303.603 L
272.64 304.747 L
274.81 305.89 L
276.98 307.033 L
279.15 308.177 L
281.32 309.32 L
283.49 310.463 L
285.66 311.607 L
287.83 312.75 L
290 313.893 L
292.17 315.037 L
294.34 316.18 L
296.51 317.323 L
298.68 318.467 L
300.85 319.61 L
303.02 320.753 L
305.19 321.897 L
307.36 323.04 L
309.53 324.183 L
311.7 325.327 L
313.87 326.47 L
316.04 327.613 L
318.21 328.757 L
320.38 329.9 L
322.55 331.043 L
324.72 332.187 L
326.89 333.33 L
329.06 334.473 L
331.23 335.617 L
333.4 336.76 L
335.57 337.903 L
337.74 339.047 L
339.91 340.19 L
342.08 341.333 L
344.25 342.477 L
346.42 343.62 L
348.59 344.763 L
350.76 345.907 L
352.93 347.05 L
355.1 348.193 L
357.27 349.337 L
359.44 350.48 L
361.61 351.623 L
363.78 352.767 L
365.95 353.91 L
368.12 355.053 L
370.29 356.197 L
372.46 357.34 L
374.63 358.483 L
376.8 359.627 L
378.97 360.77 L
381.14 361.913 L
383.31 363.057 L
385.48 364.2 L
387.65 365.343 L
389.82 366.487 L
391.99 367.63 L
394.16 366.748 L
396.33 365.866 L
398.5 364.984 L
400.67 364.102 L
402.84 363.22 L
405.01 359.3 L
407.18 355.38 L
409.35 351.46 L
411.52 347.54 L
413.69 343.62 L
415.86 339.7 L
418.03 335.78 L
420.2 331.86 L
422.37 327.94 L
424.54 324.02 L
426.71 320.1 L
428.88 316.18 L
431.05 312.26 L
433.22 308.34 L
435.39 304.42 L
437.56 300.5 L
439.73 296.58 L
441.9 292.66 L
444.07 288.74 L
446.24 284.82 L
448.41 280.9 L
450.58 276.98 L
452.75 273.06 L
454.92 269.14 L
457.09 265.22 L
459.26 261.3 L
461.43 257.38 L
463.6 253.46 L
465.77 249.54 L
467.94 245.62 L
470.11 241.7 L
472.28 237.78 L
474.45 233.86 L
476.62 229.94 L
478.79 226.02 L
480.96 222.1 L
483.13 218.18 L
485.3 214.26 L
487.47 210.34 L
489.64 206.42 L
491.81 202.5 L
493.98 198.58 L
496.15 194.66 L
498.32 190.74 L
500.49 186.82 L
502.66 182.9 L
504.83 178.98 L
507 175.06 L
S
GR
GS
0 1 0 RC
[8 8] 0 setdash
2 LJ
2 LW
N
73 187.473 M
75.17 188.78 L
77.34 190.087 L
79.51 191.393 L
81.68 192.7 L
83.85 194.007 L
86.02 195.313 L
88.19 196.62 L
90.36 197.927 L
92.53 199.233 L
94.7 200.54 L
96.87 201.847 L
99.04 203.153 L
101.21 204.46 L
103.38 205.767 L
105.55 207.073 L
107.72 208.38 L
109.89 209.687 L
112.06 210.993 L
114.23 212.3 L
116.4 213.607 L
118.57 214.913 L
120.74 216.22 L
122.91 217.527 L
125.08 218.833 L
127.25 220.14 L
129.42 221.447 L
131.59 222.753 L
133.76 224.06 L
135.93 225.367 L
138.1 226.673 L
140.27 227.98 L
142.44 229.287 L
144.61 230.593 L
146.78 231.9 L
148.95 233.207 L
151.12 234.513 L
153.29 235.82 L
155.46 237.127 L
157.63 238.433 L
159.8 239.74 L
161.97 241.047 L
164.14 242.353 L
166.31 243.66 L
168.48 244.967 L
170.65 246.273 L
172.82 247.58 L
174.99 248.887 L
177.16 250.193 L
179.33 251.5 L
181.5 252.807 L
183.67 254.113 L
185.84 255.42 L
188.01 256.727 L
190.18 258.033 L
192.35 259.34 L
194.52 260.647 L
196.69 261.953 L
198.86 263.26 L
201.03 264.567 L
203.2 265.873 L
205.37 267.18 L
207.54 268.487 L
209.71 269.793 L
211.88 271.1 L
214.05 272.407 L
216.22 273.713 L
218.39 275.02 L
220.56 276.327 L
222.73 277.633 L
224.9 278.94 L
227.07 280.247 L
229.24 281.553 L
231.41 282.86 L
233.58 284.167 L
235.75 285.473 L
237.92 286.78 L
240.09 288.087 L
242.26 289.393 L
244.43 290.7 L
246.6 292.007 L
248.77 293.313 L
250.94 294.62 L
253.11 295.927 L
255.28 297.233 L
257.45 298.54 L
259.62 299.847 L
261.79 301.153 L
263.96 302.46 L
266.13 303.767 L
268.3 305.073 L
270.47 306.38 L
272.64 307.687 L
274.81 308.993 L
276.98 310.3 L
279.15 311.607 L
281.32 312.913 L
283.49 314.22 L
285.66 315.527 L
287.83 316.833 L
290 318.14 L
292.17 319.447 L
294.34 320.753 L
296.51 322.06 L
298.68 323.367 L
300.85 324.673 L
303.02 325.98 L
305.19 327.287 L
307.36 328.593 L
309.53 329.9 L
311.7 331.207 L
313.87 332.513 L
316.04 333.82 L
318.21 335.127 L
320.38 336.433 L
322.55 337.74 L
324.72 339.047 L
326.89 340.353 L
329.06 341.66 L
331.23 342.967 L
333.4 344.273 L
335.57 345.58 L
337.74 346.887 L
339.91 348.193 L
342.08 349.5 L
344.25 350.807 L
346.42 352.113 L
348.59 353.42 L
350.76 354.727 L
352.93 356.033 L
355.1 357.34 L
357.27 358.647 L
359.44 359.953 L
361.61 361.26 L
363.78 362.567 L
365.95 363.873 L
368.12 365.18 L
370.29 363.955 L
372.46 362.73 L
374.63 361.505 L
376.8 360.28 L
378.97 359.055 L
381.14 357.83 L
383.31 356.605 L
385.48 355.38 L
387.65 354.155 L
389.82 352.93 L
391.99 351.705 L
394.16 350.48 L
396.33 349.255 L
398.5 348.03 L
400.67 346.805 L
402.84 345.58 L
405.01 344.355 L
407.18 343.13 L
409.35 341.905 L
411.52 340.68 L
413.69 339.455 L
415.86 338.23 L
418.03 337.005 L
420.2 335.78 L
422.37 334.555 L
424.54 333.33 L
426.71 332.105 L
428.88 330.88 L
431.05 329.655 L
433.22 328.43 L
435.39 327.205 L
437.56 325.98 L
439.73 324.755 L
441.9 323.53 L
444.07 322.305 L
446.24 321.08 L
448.41 319.855 L
450.58 318.63 L
452.75 317.405 L
454.92 316.18 L
457.09 314.955 L
459.26 313.73 L
461.43 312.505 L
463.6 311.28 L
465.77 310.055 L
467.94 308.83 L
470.11 307.605 L
472.28 306.38 L
474.45 305.155 L
476.62 303.93 L
478.79 302.705 L
480.96 301.48 L
483.13 300.255 L
485.3 299.03 L
487.47 297.805 L
489.64 296.58 L
491.81 295.355 L
493.98 294.13 L
496.15 292.905 L
498.32 291.68 L
500.49 290.455 L
502.66 289.23 L
504.83 288.005 L
507 286.78 L
S
GR
GS
1 0 0 RC
[2 2] 0 setdash
2 LJ
2 LW
N
73 74.12 M
75.17 75.835 L
77.34 77.55 L
79.51 79.265 L
81.68 80.98 L
83.85 82.695 L
86.02 84.41 L
88.19 86.125 L
90.36 87.84 L
92.53 89.555 L
94.7 91.27 L
96.87 92.985 L
99.04 94.7 L
101.21 96.415 L
103.38 98.13 L
105.55 99.845 L
107.72 101.56 L
109.89 103.275 L
112.06 104.99 L
114.23 106.705 L
116.4 108.42 L
118.57 110.135 L
120.74 111.85 L
122.91 113.565 L
125.08 115.28 L
127.25 116.995 L
129.42 118.71 L
131.59 120.425 L
133.76 122.14 L
135.93 123.855 L
138.1 125.57 L
140.27 127.285 L
142.44 129 L
144.61 130.715 L
146.78 132.43 L
148.95 134.145 L
151.12 135.86 L
153.29 137.575 L
155.46 139.29 L
157.63 141.005 L
159.8 142.72 L
161.97 144.435 L
164.14 146.15 L
166.31 147.865 L
168.48 149.58 L
170.65 151.295 L
172.82 153.01 L
174.99 154.725 L
177.16 156.44 L
179.33 158.155 L
181.5 159.87 L
183.67 161.585 L
185.84 163.3 L
188.01 165.015 L
190.18 166.73 L
192.35 168.445 L
194.52 170.16 L
196.69 171.875 L
198.86 173.59 L
201.03 175.305 L
203.2 177.02 L
205.37 178.735 L
207.54 180.45 L
209.71 182.165 L
211.88 183.88 L
214.05 185.595 L
216.22 187.31 L
218.39 189.025 L
220.56 190.74 L
222.73 192.455 L
224.9 194.17 L
227.07 195.885 L
229.24 197.6 L
231.41 199.315 L
233.58 201.03 L
235.75 202.745 L
237.92 204.46 L
240.09 206.175 L
242.26 207.89 L
244.43 209.605 L
246.6 211.32 L
248.77 213.035 L
250.94 214.75 L
253.11 216.465 L
255.28 218.18 L
257.45 219.895 L
259.62 221.61 L
261.79 223.325 L
263.96 225.04 L
266.13 226.755 L
268.3 228.47 L
270.47 230.185 L
272.64 231.9 L
274.81 233.615 L
276.98 235.33 L
279.15 237.045 L
281.32 238.76 L
283.49 240.475 L
285.66 242.19 L
287.83 243.905 L
290 245.62 L
292.17 247.335 L
294.34 249.05 L
296.51 250.765 L
298.68 252.48 L
300.85 254.195 L
303.02 255.91 L
305.19 257.625 L
307.36 259.34 L
309.53 261.055 L
311.7 262.77 L
313.87 264.485 L
316.04 266.2 L
318.21 267.915 L
320.38 269.63 L
322.55 271.345 L
324.72 273.06 L
326.89 274.775 L
329.06 276.49 L
331.23 278.205 L
333.4 279.92 L
335.57 281.635 L
337.74 283.35 L
339.91 285.065 L
342.08 286.78 L
344.25 288.495 L
346.42 290.21 L
348.59 291.925 L
350.76 293.64 L
352.93 295.355 L
355.1 297.07 L
357.27 298.785 L
359.44 300.5 L
361.61 302.215 L
363.78 303.93 L
365.95 305.645 L
368.12 307.36 L
370.29 309.075 L
372.46 310.79 L
374.63 312.505 L
376.8 314.22 L
378.97 315.935 L
381.14 317.65 L
383.31 319.365 L
385.48 321.08 L
387.65 322.795 L
389.82 324.51 L
391.99 326.225 L
394.16 327.94 L
396.33 329.655 L
398.5 331.37 L
400.67 333.085 L
402.84 334.8 L
405.01 336.515 L
407.18 338.23 L
409.35 339.945 L
411.52 341.66 L
413.69 343.375 L
415.86 345.09 L
418.03 346.805 L
420.2 348.52 L
422.37 350.235 L
424.54 351.95 L
426.71 353.665 L
428.88 355.38 L
431.05 357.095 L
433.22 358.81 L
435.39 360.525 L
437.56 362.24 L
439.73 362.436 L
441.9 362.632 L
444.07 362.828 L
446.24 363.024 L
448.41 363.22 L
450.58 363.416 L
452.75 363.612 L
454.92 363.808 L
457.09 364.004 L
459.26 364.2 L
461.43 363.383 L
463.6 362.567 L
465.77 361.75 L
467.94 360.933 L
470.11 360.117 L
472.28 359.3 L
474.45 358.483 L
476.62 357.667 L
478.79 356.85 L
480.96 356.033 L
483.13 355.217 L
485.3 354.4 L
487.47 353.583 L
489.64 352.767 L
491.81 351.95 L
493.98 351.133 L
496.15 350.317 L
498.32 349.5 L
500.49 348.683 L
502.66 347.867 L
504.83 347.05 L
507 346.233 L
S
GR
GS
1 GC
N
425 96 M
425 41 L
497 41 L
497 96 L
cp
f
GR
GS
[1 0 0 1 462.07291 51.32491] CT
N
1.359 5.672 M
1.625 5.876 1.984 5.876 QT
2.484 5.876 2.797 4.766 QT
2.938 4.235 3.516 1.251 QT
4.156 -2.187 L
2.953 -2.187 L
2.813 -2.187 2.813 -2.374 QT
2.875 -2.671 3 -2.671 QT
4.25 -2.671 L
4.406 -3.593 L
4.484 -4.015 4.555 -4.32 QT
4.625 -4.624 4.703 -4.882 QT
4.781 -5.14 4.938 -5.453 QT
5.188 -5.921 5.594 -6.218 QT
6 -6.515 6.469 -6.515 QT
6.781 -6.515 7.07 -6.398 QT
7.359 -6.281 7.539 -6.054 QT
7.719 -5.828 7.719 -5.531 QT
7.719 -5.171 7.484 -4.906 QT
7.25 -4.64 6.922 -4.64 QT
6.688 -4.64 6.531 -4.781 QT
6.375 -4.921 6.375 -5.156 QT
6.375 -5.453 6.578 -5.687 QT
6.781 -5.921 7.094 -5.953 QT
6.844 -6.156 6.453 -6.156 QT
6.234 -6.156 6.047 -5.953 QT
5.859 -5.749 5.813 -5.531 QT
5.719 -5.171 5.422 -3.593 QT
5.25 -2.671 L
6.688 -2.671 L
6.828 -2.671 6.828 -2.499 QT
6.828 -2.453 6.805 -2.367 QT
6.781 -2.281 6.742 -2.234 QT
6.703 -2.187 6.656 -2.187 QT
5.156 -2.187 L
4.5 1.235 L
4.375 1.985 4.219 2.751 QT
4.063 3.516 3.773 4.329 QT
3.484 5.141 3.031 5.688 QT
2.578 6.235 1.969 6.235 QT
1.484 6.235 1.117 5.962 QT
0.75 5.688 0.75 5.251 QT
0.75 4.891 0.977 4.626 QT
1.203 4.36 1.547 4.36 QT
1.781 4.36 1.938 4.501 QT
2.094 4.641 2.094 4.876 QT
2.094 5.172 1.875 5.422 QT
1.656 5.672 1.359 5.672 QT
cp
f
GR
GS
[1 0 0 1 462.07291 51.32491] CT
N
12.705 6.829 M
11.924 6.219 11.361 5.422 QT
10.799 4.626 10.439 3.719 QT
10.08 2.813 9.9 1.829 QT
9.721 0.844 9.721 -0.14 QT
9.721 -1.14 9.9 -2.124 QT
10.08 -3.109 10.447 -4.023 QT
10.814 -4.937 11.377 -5.726 QT
11.939 -6.515 12.705 -7.109 QT
12.705 -7.14 12.767 -7.14 QT
12.908 -7.14 L
12.939 -7.14 12.978 -7.101 QT
13.017 -7.062 13.017 -7.015 QT
13.017 -6.953 12.986 -6.921 QT
12.299 -6.265 11.846 -5.499 QT
11.392 -4.734 11.111 -3.867 QT
10.83 -2.999 10.713 -2.07 QT
10.596 -1.14 10.596 -0.14 QT
10.596 4.313 12.971 6.626 QT
13.017 6.657 13.017 6.735 QT
13.017 6.766 12.978 6.813 QT
12.939 6.86 12.908 6.86 QT
12.767 6.86 L
12.705 6.86 12.705 6.829 QT
cp
f
GR
GS
[1 0 0 1 462.07291 51.32491] CT
N
16.227 3.516 M
15.384 3.516 14.907 2.852 QT
14.431 2.188 14.431 1.297 QT
14.431 1.172 14.501 0.79 QT
14.571 0.407 14.571 0.329 QT
15.915 -5.109 L
15.977 -5.343 15.993 -5.484 QT
15.993 -5.718 15.071 -5.718 QT
14.946 -5.718 14.946 -5.89 QT
14.946 -5.937 14.97 -6.023 QT
14.993 -6.109 15.032 -6.156 QT
15.071 -6.203 15.134 -6.203 QT
17.024 -6.359 L
17.196 -6.359 17.196 -6.171 QT
16.165 -2.046 L
16.946 -2.828 17.759 -2.828 QT
18.352 -2.828 18.782 -2.515 QT
19.212 -2.203 19.423 -1.687 QT
19.634 -1.171 19.634 -0.593 QT
19.634 0.079 19.368 0.805 QT
19.102 1.532 18.642 2.149 QT
18.181 2.766 17.556 3.141 QT
16.931 3.516 16.227 3.516 QT
cp
16.259 3.141 M
16.727 3.141 17.149 2.743 QT
17.571 2.344 17.821 1.844 QT
18.102 1.282 18.345 0.321 QT
18.587 -0.64 18.587 -1.203 QT
18.587 -1.703 18.384 -2.085 QT
18.181 -2.468 17.727 -2.468 QT
17.212 -2.468 16.751 -2.093 QT
16.29 -1.718 15.946 -1.203 QT
15.556 0.376 L
15.337 1.266 15.321 1.797 QT
15.321 2.313 15.548 2.727 QT
15.774 3.141 16.259 3.141 QT
cp
f
GR
GS
[1 0 0 1 462.07291 51.32491] CT
N
20.736 5.46 M
20.736 5.101 L
21.986 5.101 21.986 4.788 QT
21.986 -0.462 L
21.47 -0.212 20.689 -0.212 QT
20.689 -0.556 L
21.908 -0.556 22.533 -1.196 QT
22.673 -1.196 L
22.705 -1.196 22.736 -1.173 QT
22.767 -1.149 22.767 -1.118 QT
22.767 4.788 L
22.767 5.101 24.017 5.101 QT
24.017 5.46 L
20.736 5.46 L
cp
f
GR
GS
[1 0 0 1 462.07291 51.32491] CT
N
26.32 6.86 M
26.195 6.86 26.195 6.735 QT
26.195 6.672 26.226 6.641 QT
28.617 4.313 28.617 -0.14 QT
28.617 -4.593 26.258 -6.906 QT
26.195 -6.937 26.195 -7.015 QT
26.195 -7.062 26.234 -7.101 QT
26.273 -7.14 26.32 -7.14 QT
26.461 -7.14 L
26.492 -7.14 26.523 -7.109 QT
27.523 -6.328 28.195 -5.187 QT
28.867 -4.046 29.18 -2.765 QT
29.492 -1.484 29.492 -0.14 QT
29.492 0.844 29.32 1.805 QT
29.148 2.766 28.789 3.704 QT
28.43 4.641 27.867 5.43 QT
27.305 6.219 26.523 6.829 QT
26.492 6.86 26.461 6.86 QT
26.32 6.86 L
cp
f
GR
GS
0 0 1 RC
1 LJ
2 LW
N
429.008 51.325 M
459.067 51.325 L
S
GR
GS
[1 0 0 1 462.07291 68.5] CT
N
/f-264775883{1.359 5.672 M
1.625 5.876 1.984 5.876 QT
2.484 5.876 2.797 4.766 QT
2.938 4.235 3.516 1.251 QT
4.156 -2.187 L
2.953 -2.187 L
2.813 -2.187 2.813 -2.374 QT
2.875 -2.671 3 -2.671 QT
4.25 -2.671 L
4.406 -3.593 L
4.484 -4.015 4.555 -4.32 QT
4.625 -4.624 4.703 -4.882 QT
4.781 -5.14 4.938 -5.453 QT
5.188 -5.921 5.594 -6.218 QT
6 -6.515 6.469 -6.515 QT
6.781 -6.515 7.07 -6.398 QT
7.359 -6.281 7.539 -6.054 QT
7.719 -5.828 7.719 -5.531 QT
7.719 -5.171 7.484 -4.906 QT
7.25 -4.64 6.922 -4.64 QT
6.688 -4.64 6.531 -4.781 QT
6.375 -4.921 6.375 -5.156 QT
6.375 -5.453 6.578 -5.687 QT
6.781 -5.921 7.094 -5.953 QT
6.844 -6.156 6.453 -6.156 QT
6.234 -6.156 6.047 -5.953 QT
5.859 -5.749 5.813 -5.531 QT
5.719 -5.171 5.422 -3.593 QT
5.25 -2.671 L
6.688 -2.671 L
6.828 -2.671 6.828 -2.499 QT
6.828 -2.453 6.805 -2.367 QT
6.781 -2.281 6.742 -2.234 QT
6.703 -2.187 6.656 -2.187 QT
5.156 -2.187 L
4.5 1.235 L
4.375 1.985 4.219 2.751 QT
4.063 3.516 3.773 4.329 QT
3.484 5.141 3.031 5.688 QT
2.578 6.235 1.969 6.235 QT
1.484 6.235 1.117 5.962 QT
0.75 5.688 0.75 5.251 QT
0.75 4.891 0.977 4.626 QT
1.203 4.36 1.547 4.36 QT
1.781 4.36 1.938 4.501 QT
2.094 4.641 2.094 4.876 QT
2.094 5.172 1.875 5.422 QT
1.656 5.672 1.359 5.672 QT
cp}def
f-264775883
f
GR
GS
[1 0 0 1 462.07291 68.5] CT
N
/f-1643456700{12.705 6.829 M
11.924 6.219 11.361 5.422 QT
10.799 4.626 10.439 3.719 QT
10.08 2.813 9.9 1.829 QT
9.721 0.844 9.721 -0.14 QT
9.721 -1.14 9.9 -2.124 QT
10.08 -3.109 10.447 -4.023 QT
10.814 -4.937 11.377 -5.726 QT
11.939 -6.515 12.705 -7.109 QT
12.705 -7.14 12.767 -7.14 QT
12.908 -7.14 L
12.939 -7.14 12.978 -7.101 QT
13.017 -7.062 13.017 -7.015 QT
13.017 -6.953 12.986 -6.921 QT
12.299 -6.265 11.846 -5.499 QT
11.392 -4.734 11.111 -3.867 QT
10.83 -2.999 10.713 -2.07 QT
10.596 -1.14 10.596 -0.14 QT
10.596 4.313 12.971 6.626 QT
13.017 6.657 13.017 6.735 QT
13.017 6.766 12.978 6.813 QT
12.939 6.86 12.908 6.86 QT
12.767 6.86 L
12.705 6.86 12.705 6.829 QT
cp}def
f-1643456700
f
GR
GS
[1 0 0 1 462.07291 68.5] CT
N
/f-1561671009{16.227 3.516 M
15.384 3.516 14.907 2.852 QT
14.431 2.188 14.431 1.297 QT
14.431 1.172 14.501 0.79 QT
14.571 0.407 14.571 0.329 QT
15.915 -5.109 L
15.977 -5.343 15.993 -5.484 QT
15.993 -5.718 15.071 -5.718 QT
14.946 -5.718 14.946 -5.89 QT
14.946 -5.937 14.97 -6.023 QT
14.993 -6.109 15.032 -6.156 QT
15.071 -6.203 15.134 -6.203 QT
17.024 -6.359 L
17.196 -6.359 17.196 -6.171 QT
16.165 -2.046 L
16.946 -2.828 17.759 -2.828 QT
18.352 -2.828 18.782 -2.515 QT
19.212 -2.203 19.423 -1.687 QT
19.634 -1.171 19.634 -0.593 QT
19.634 0.079 19.368 0.805 QT
19.102 1.532 18.642 2.149 QT
18.181 2.766 17.556 3.141 QT
16.931 3.516 16.227 3.516 QT
cp
16.259 3.141 M
16.727 3.141 17.149 2.743 QT
17.571 2.344 17.821 1.844 QT
18.102 1.282 18.345 0.321 QT
18.587 -0.64 18.587 -1.203 QT
18.587 -1.703 18.384 -2.085 QT
18.181 -2.468 17.727 -2.468 QT
17.212 -2.468 16.751 -2.093 QT
16.29 -1.718 15.946 -1.203 QT
15.556 0.376 L
15.337 1.266 15.321 1.797 QT
15.321 2.313 15.548 2.727 QT
15.774 3.141 16.259 3.141 QT
cp}def
f-1561671009
f
GR
GS
[1 0 0 1 462.07291 68.5] CT
N
/f1355550343{20.314 5.46 M
20.314 5.194 L
20.314 5.163 20.33 5.132 QT
21.892 3.413 L
22.236 3.038 22.455 2.78 QT
22.673 2.522 22.892 2.186 QT
23.111 1.851 23.236 1.499 QT
23.361 1.147 23.361 0.757 QT
23.361 0.351 23.205 -0.024 QT
23.048 -0.399 22.751 -0.626 QT
22.455 -0.853 22.033 -0.853 QT
21.595 -0.853 21.244 -0.587 QT
20.892 -0.321 20.751 0.085 QT
20.798 0.085 20.861 0.085 QT
21.095 0.085 21.251 0.233 QT
21.408 0.382 21.408 0.616 QT
21.408 0.851 21.251 1.007 QT
21.095 1.163 20.861 1.163 QT
20.626 1.163 20.47 0.999 QT
20.314 0.835 20.314 0.616 QT
20.314 0.241 20.455 -0.087 QT
20.595 -0.415 20.861 -0.673 QT
21.126 -0.931 21.462 -1.064 QT
21.798 -1.196 22.173 -1.196 QT
22.751 -1.196 23.244 -0.954 QT
23.736 -0.712 24.025 -0.274 QT
24.314 0.163 24.314 0.757 QT
24.314 1.194 24.119 1.585 QT
23.923 1.976 23.626 2.296 QT
23.33 2.616 22.869 3.022 QT
22.408 3.429 22.251 3.554 QT
21.126 4.647 L
22.08 4.647 L
22.798 4.647 23.275 4.64 QT
23.751 4.632 23.767 4.601 QT
23.892 4.476 24.017 3.679 QT
24.314 3.679 L
24.017 5.46 L
20.314 5.46 L
cp}def
f1355550343
f
GR
GS
[1 0 0 1 462.07291 68.5] CT
N
/f-879769603{26.32 6.86 M
26.195 6.86 26.195 6.735 QT
26.195 6.672 26.226 6.641 QT
28.617 4.313 28.617 -0.14 QT
28.617 -4.593 26.258 -6.906 QT
26.195 -6.937 26.195 -7.015 QT
26.195 -7.062 26.234 -7.101 QT
26.273 -7.14 26.32 -7.14 QT
26.461 -7.14 L
26.492 -7.14 26.523 -7.109 QT
27.523 -6.328 28.195 -5.187 QT
28.867 -4.046 29.18 -2.765 QT
29.492 -1.484 29.492 -0.14 QT
29.492 0.844 29.32 1.805 QT
29.148 2.766 28.789 3.704 QT
28.43 4.641 27.867 5.43 QT
27.305 6.219 26.523 6.829 QT
26.492 6.86 26.461 6.86 QT
26.32 6.86 L
cp}def
f-879769603
f
GR
GS
0 1 0 RC
[8 8] 0 setdash
2 LJ
2 LW
N
429.008 68.5 M
459.067 68.5 L
S
GR
GS
[1 0 0 1 462.07291 85.67509] CT
N
f-264775883
f
GR
GS
[1 0 0 1 462.07291 85.67509] CT
N
f-1643456700
f
GR
GS
[1 0 0 1 462.07291 85.67509] CT
N
f-1561671009
f
GR
GS
[1 0 0 1 462.07291 85.67509] CT
N
/f-1394916137{20.767 4.694 M
21.001 5.022 21.4 5.194 QT
21.798 5.366 22.251 5.366 QT
22.83 5.366 23.072 4.866 QT
23.314 4.366 23.314 3.741 QT
23.314 3.46 23.267 3.179 QT
23.22 2.897 23.095 2.647 QT
22.97 2.397 22.759 2.257 QT
22.548 2.116 22.236 2.116 QT
21.58 2.116 L
21.486 2.116 21.486 2.022 QT
21.486 1.929 L
21.486 1.851 21.58 1.851 QT
22.126 1.804 L
22.47 1.804 22.705 1.538 QT
22.939 1.272 23.048 0.897 QT
23.158 0.522 23.158 0.179 QT
23.158 -0.29 22.931 -0.603 QT
22.705 -0.915 22.251 -0.915 QT
21.861 -0.915 21.517 -0.767 QT
21.173 -0.618 20.97 -0.337 QT
20.986 -0.337 21.001 -0.337 QT
21.017 -0.337 21.033 -0.337 QT
21.267 -0.337 21.416 -0.181 QT
21.564 -0.024 21.564 0.194 QT
21.564 0.413 21.416 0.569 QT
21.267 0.726 21.033 0.726 QT
20.814 0.726 20.658 0.569 QT
20.501 0.413 20.501 0.194 QT
20.501 -0.243 20.759 -0.556 QT
21.017 -0.868 21.423 -1.032 QT
21.83 -1.196 22.251 -1.196 QT
22.548 -1.196 22.884 -1.11 QT
23.22 -1.024 23.494 -0.853 QT
23.767 -0.681 23.939 -0.415 QT
24.111 -0.149 24.111 0.179 QT
24.111 0.601 23.923 0.96 QT
23.736 1.319 23.408 1.577 QT
23.08 1.835 22.689 1.96 QT
23.126 2.038 23.517 2.28 QT
23.908 2.522 24.15 2.905 QT
24.392 3.288 24.392 3.726 QT
24.392 4.288 24.087 4.733 QT
23.783 5.179 23.291 5.429 QT
22.798 5.679 22.251 5.679 QT
21.783 5.679 21.306 5.499 QT
20.83 5.319 20.533 4.968 QT
20.236 4.616 20.236 4.116 QT
20.236 3.866 20.4 3.702 QT
20.564 3.538 20.814 3.538 QT
20.97 3.538 21.111 3.608 QT
21.251 3.679 21.322 3.819 QT
21.392 3.96 21.392 4.116 QT
21.392 4.351 21.22 4.522 QT
21.048 4.694 20.814 4.694 QT
20.767 4.694 L
cp}def
f-1394916137
f
GR
GS
[1 0 0 1 462.07291 85.67509] CT
N
f-879769603
f
GR
GS
1 0 0 RC
[2 2] 0 setdash
2 LJ
2 LW
N
429.008 85.675 M
459.067 85.675 L
S
GR
GS
0.149 GC
10.0 ML
0.5 LW
N
425 96 M
425 41 L
497 41 L
497 96 L
cp
S
GR
%%Trailer
%%Pages: 1
%%EOF
