\relax 
\providecommand\hyper@newdestlabel[2]{}
\providecommand\HyperFirstAtBeginDocument{\AtBeginDocument}
\HyperFirstAtBeginDocument{\ifx\hyper@anchor\@undefined
\global\let\oldcontentsline\contentsline
\gdef\contentsline#1#2#3#4{\oldcontentsline{#1}{#2}{#3}}
\global\let\oldnewlabel\newlabel
\gdef\newlabel#1#2{\newlabelxx{#1}#2}
\gdef\newlabelxx#1#2#3#4#5#6{\oldnewlabel{#1}{{#2}{#3}}}
\AtEndDocument{\ifx\hyper@anchor\@undefined
\let\contentsline\oldcontentsline
\let\newlabel\oldnewlabel
\fi}
\fi}
\global\let\hyper@last\relax 
\gdef\HyperFirstAtBeginDocument#1{#1}
\providecommand\HyField@AuxAddToFields[1]{}
\providecommand\HyField@AuxAddToCoFields[2]{}
\newlabel{1.1}{{{E6.1.1}}{1}{}{AMS.3}{}}
\newlabel{e1.2}{{{E6.1.2}}{1}{}{AMS.4}{}}
\newlabel{e1.3}{{{E6.1.3}}{3}{}{AMS.6}{}}
\newlabel{2.1}{{{E6.2.1}}{4}{}{AMS.7}{}}
\newlabel{tocindent-1}{0pt}
\newlabel{tocindent0}{0pt}
\newlabel{tocindent1}{0pt}
\newlabel{tocindent2}{0pt}
\newlabel{tocindent3}{0pt}
\@writefile{lof}{\contentsline {figure}{\numberline {1}{\ignorespaces Objective value as a function of $b$}}{7}{figure.1}}
\newlabel{fig1}{{1}{7}{Objective value as a function of $b$}{figure.1}{}}
