b1 = 7.000000
L1 = -1.000000
U1 = 100000000000000000000.000000

b2 = 2.000000
L2 = -4.000000
U2 = 100000000000000000000.000000

b3 = 12.000000
L3 = -100000000000000000000.000000
U3 = 2.000000

obj = 19

x1 = 7.400000
x2 = 0.400000
x3 = 2.000000
x4 = 0.000000
x5 = 0.000000
