z = 450

x(1,1) = 0.000000
x(1,2) = 0.000000
x(1,3) = 40.000000
x(1,4) = 0.000000
x(2,1) = 0.000000
x(2,2) = 40.000000
x(2,3) = 0.000000
x(2,4) = 0.000000
x(3,1) = 0.000000
x(3,2) = 0.000000
x(3,3) = 10.000000
x(3,4) = 0.000000
x(4,1) = 10.000000
x(4,2) = 10.000000
x(4,3) = 30.000000
x(4,4) = 20.000000
