finalCash = 5888.07

i = 1
j = 1
x[i,j] = 0

i = 1
j = 2
x[i,j] = 0

i = 1
y[i] = 1000

i = 2
j = 1
x[i,j] = 0

i = 2
j = 2
x[i,j] = 0

i = 2
y[i] = 2150

i = 3
j = 1
x[i,j] = 3315

i = 3
j = 2
x[i,j] = 0

i = 3
y[i] = 0

i = 4
j = 1
x[i,j] = 0

i = 4
j = 2
x[i,j] = 0

i = 4
y[i] = 1796.7

