\relax 
\providecommand\hyper@newdestlabel[2]{}
\providecommand\HyperFirstAtBeginDocument{\AtBeginDocument}
\HyperFirstAtBeginDocument{\ifx\hyper@anchor\@undefined
\global\let\oldcontentsline\contentsline
\gdef\contentsline#1#2#3#4{\oldcontentsline{#1}{#2}{#3}}
\global\let\oldnewlabel\newlabel
\gdef\newlabel#1#2{\newlabelxx{#1}#2}
\gdef\newlabelxx#1#2#3#4#5#6{\oldnewlabel{#1}{{#2}{#3}}}
\AtEndDocument{\ifx\hyper@anchor\@undefined
\let\contentsline\oldcontentsline
\let\newlabel\oldnewlabel
\fi}
\fi}
\global\let\hyper@last\relax 
\gdef\HyperFirstAtBeginDocument#1{#1}
\providecommand\HyField@AuxAddToFields[1]{}
\providecommand\HyField@AuxAddToCoFields[2]{}
\newlabel{e2.3.1}{{{E2.3.1}}{3}{}{AMS.2}{}}
\newlabel{cost_table}{{}{3}{}{AMS.2}{}}
\newlabel{e2.4.1}{{{E2.4.1}}{6}{}{AMS.3}{}}
\newlabel{e2.4.2}{{{E2.4.2}}{6}{}{AMS.4}{}}
\newlabel{e2.5.1}{{{E2.5.1}}{9}{}{AMS.5}{}}
\newlabel{e2.5.2}{{{E2.5.2}}{9}{}{AMS.6}{}}
\newlabel{e2.6.1}{{{E2.6.1}}{12}{}{AMS.7}{}}
\newlabel{tocindent-1}{0pt}
\newlabel{tocindent0}{0pt}
\newlabel{tocindent1}{0pt}
\newlabel{tocindent2}{0pt}
\newlabel{tocindent3}{0pt}
