\relax 
\providecommand\hyper@newdestlabel[2]{}
\providecommand\HyperFirstAtBeginDocument{\AtBeginDocument}
\HyperFirstAtBeginDocument{\ifx\hyper@anchor\@undefined
\global\let\oldcontentsline\contentsline
\gdef\contentsline#1#2#3#4{\oldcontentsline{#1}{#2}{#3}}
\global\let\oldnewlabel\newlabel
\gdef\newlabel#1#2{\newlabelxx{#1}#2}
\gdef\newlabelxx#1#2#3#4#5#6{\oldnewlabel{#1}{{#2}{#3}}}
\AtEndDocument{\ifx\hyper@anchor\@undefined
\let\contentsline\oldcontentsline
\let\newlabel\oldnewlabel
\fi}
\fi}
\global\let\hyper@last\relax 
\gdef\HyperFirstAtBeginDocument#1{#1}
\providecommand\HyField@AuxAddToFields[1]{}
\providecommand\HyField@AuxAddToCoFields[2]{}
\@writefile{toc}{\contentsline {section}{\tocsection {}{}{Phase I Problem}}{1}{section*.1}}
\newlabel{phi}{{{$\Phi $}}{1}{Phase I Problem}{AMS.2}{}}
\@writefile{toc}{\contentsline {section}{\tocsection {}{}{Simplex Algorithm}}{1}{section*.3}}
\newlabel{p}{{{P}}{1}{Simplex Algorithm}{AMS.4}{}}
\@writefile{lol}{\contentsline {lstlisting}{HW\textunderscore 4\textunderscore MATLAB\textunderscore P1.m}{2}{lstlisting.-1}}
\@writefile{toc}{\contentsline {section}{\tocsection {}{}{Examples}}{4}{section*.5}}
\@writefile{toc}{\contentsline {subsection}{\tocsubsection {}{}{Infeasible Problem}}{4}{section*.6}}
\newlabel{e411}{{{E4.1.1}}{4}{Infeasible Problem}{AMS.7}{}}
\@writefile{toc}{\contentsline {subsection}{\tocsubsection {}{}{Unbounded Problem}}{4}{section*.8}}
\newlabel{e412}{{{E4.1.2}}{4}{Unbounded Problem}{AMS.9}{}}
\@writefile{toc}{\contentsline {subsection}{\tocsubsection {}{}{Feasible Problem with Optimum Solution}}{5}{section*.10}}
\newlabel{e413}{{{E4.1.3}}{5}{Feasible Problem with Optimum Solution}{AMS.11}{}}
\newlabel{tocindent-1}{0pt}
\newlabel{tocindent0}{14.69437pt}
\newlabel{tocindent1}{0pt}
\newlabel{tocindent2}{0pt}
\newlabel{tocindent3}{0pt}
