\relax 
\providecommand\hyper@newdestlabel[2]{}
\providecommand\HyperFirstAtBeginDocument{\AtBeginDocument}
\HyperFirstAtBeginDocument{\ifx\hyper@anchor\@undefined
\global\let\oldcontentsline\contentsline
\gdef\contentsline#1#2#3#4{\oldcontentsline{#1}{#2}{#3}}
\global\let\oldnewlabel\newlabel
\gdef\newlabel#1#2{\newlabelxx{#1}#2}
\gdef\newlabelxx#1#2#3#4#5#6{\oldnewlabel{#1}{{#2}{#3}}}
\AtEndDocument{\ifx\hyper@anchor\@undefined
\let\contentsline\oldcontentsline
\let\newlabel\oldnewlabel
\fi}
\fi}
\global\let\hyper@last\relax 
\gdef\HyperFirstAtBeginDocument#1{#1}
\providecommand\HyField@AuxAddToFields[1]{}
\providecommand\HyField@AuxAddToCoFields[2]{}
\newlabel{e2.5.1}{{{E2.5.1}}{1}{}{AMS.1}{}}
\newlabel{t8.1}{{{8.1.1}}{1}{}{AMS.2}{}}
\newlabel{e812}{{{8.1.2}}{1}{}{AMS.3}{}}
\newlabel{e813}{{{P}}{1}{}{AMS.4}{}}
\newlabel{e814}{{{D}}{1}{}{AMS.5}{}}
\@writefile{lof}{\contentsline {figure}{\numberline {1}{\ignorespaces Network Graph for the Dual Task Scheduling Problem}}{2}{figure.1}}
\newlabel{fig1}{{1}{2}{Network Graph for the Dual Task Scheduling Problem}{figure.1}{}}
\@writefile{lof}{\contentsline {figure}{\numberline {2}{\ignorespaces Simplified Network Graph for the Dual Task Scheduling Problem}}{4}{figure.2}}
\newlabel{fig2}{{2}{4}{Simplified Network Graph for the Dual Task Scheduling Problem}{figure.2}{}}
\newlabel{e831}{{{8.3.1}}{4}{}{AMS.6}{}}
\newlabel{e832}{{{8.3.2}}{5}{}{AMS.7}{}}
\newlabel{tocindent-1}{0pt}
\newlabel{tocindent0}{0pt}
\newlabel{tocindent1}{0pt}
\newlabel{tocindent2}{0pt}
\newlabel{tocindent3}{0pt}
