\relax 
\providecommand\hyper@newdestlabel[2]{}
\providecommand\HyperFirstAtBeginDocument{\AtBeginDocument}
\HyperFirstAtBeginDocument{\ifx\hyper@anchor\@undefined
\global\let\oldcontentsline\contentsline
\gdef\contentsline#1#2#3#4{\oldcontentsline{#1}{#2}{#3}}
\global\let\oldnewlabel\newlabel
\gdef\newlabel#1#2{\newlabelxx{#1}#2}
\gdef\newlabelxx#1#2#3#4#5#6{\oldnewlabel{#1}{{#2}{#3}}}
\AtEndDocument{\ifx\hyper@anchor\@undefined
\let\contentsline\oldcontentsline
\let\newlabel\oldnewlabel
\fi}
\fi}
\global\let\hyper@last\relax 
\gdef\HyperFirstAtBeginDocument#1{#1}
\providecommand\HyField@AuxAddToFields[1]{}
\providecommand\HyField@AuxAddToCoFields[2]{}
\newlabel{e1.1.1}{{{E1.1.1}}{1}{}{AMS.1}{}}
\newlabel{e1.1.2}{{{E1.1.2}}{1}{}{AMS.2}{}}
\newlabel{e1.2.1}{{{E1.2.1}}{2}{}{AMS.8}{}}
\newlabel{e1.2.2}{{{E1.2.2}}{2}{}{AMS.9}{}}
\newlabel{e1.2.3}{{{E1.2.3}}{2}{}{AMS.10}{}}
\newlabel{e1.4.1}{{{E1.4.1}}{3}{}{AMS.13}{}}
\newlabel{e1.4.2}{{{E1.4.2}}{3}{}{AMS.14}{}}
\newlabel{e1.4.3}{{{E1.4.3}}{3}{}{AMS.15}{}}
\newlabel{e1.4.4}{{{E1.4.4}}{3}{}{AMS.16}{}}
\newlabel{e1.4.5}{{{E1.4.5}}{3}{}{AMS.17}{}}
\newlabel{tocindent-1}{0pt}
\newlabel{tocindent0}{0pt}
\newlabel{tocindent1}{0pt}
\newlabel{tocindent2}{0pt}
\newlabel{tocindent3}{0pt}
\newlabel{e1.6.1}{{{E1.6.1}}{4}{}{AMS.18}{}}
\newlabel{e1.6.2}{{{E1.6.2}}{4}{}{AMS.19}{}}
\newlabel{e1.6.3}{{{E1.6.3}}{4}{}{AMS.20}{}}
\newlabel{wdt}{{1}{4}{}{thm.1}{}}
