\relax 
\providecommand\hyper@newdestlabel[2]{}
\providecommand\HyperFirstAtBeginDocument{\AtBeginDocument}
\HyperFirstAtBeginDocument{\ifx\hyper@anchor\@undefined
\global\let\oldcontentsline\contentsline
\gdef\contentsline#1#2#3#4{\oldcontentsline{#1}{#2}{#3}}
\global\let\oldnewlabel\newlabel
\gdef\newlabel#1#2{\newlabelxx{#1}#2}
\gdef\newlabelxx#1#2#3#4#5#6{\oldnewlabel{#1}{{#2}{#3}}}
\AtEndDocument{\ifx\hyper@anchor\@undefined
\let\contentsline\oldcontentsline
\let\newlabel\oldnewlabel
\fi}
\fi}
\global\let\hyper@last\relax 
\gdef\HyperFirstAtBeginDocument#1{#1}
\providecommand\HyField@AuxAddToFields[1]{}
\providecommand\HyField@AuxAddToCoFields[2]{}
\newlabel{2.1}{{{P}}{1}{}{AMS.1}{}}
\newlabel{2.2}{{{E5.2.1}}{1}{}{AMS.2}{}}
\newlabel{2.3}{{{D}}{1}{}{AMS.3}{}}
\newlabel{3.1}{{{E5.3.1}}{3}{}{AMS.6}{}}
\newlabel{2}{{{E5.3.2}}{4}{}{AMS.7}{}}
\newlabel{3}{{{E.5.2.3}}{4}{}{AMS.8}{}}
\newlabel{5.1}{{{I}}{4}{}{AMS.9}{}}
\newlabel{5.2}{{{II}}{4}{}{AMS.10}{}}
\newlabel{5.3}{{{I**}}{4}{}{AMS.12}{}}
\newlabel{5.4}{{{II***}}{4}{}{AMS.13}{}}
\newlabel{5.5}{{{II**}}{4}{}{AMS.14}{}}
\newlabel{tocindent-1}{0pt}
\newlabel{tocindent0}{0pt}
\newlabel{tocindent1}{0pt}
\newlabel{tocindent2}{0pt}
\newlabel{tocindent3}{0pt}
\newlabel{5.6}{{{II*}}{5}{}{AMS.15}{}}
\newlabel{7.1}{{{P}}{5}{}{AMS.16}{}}
\newlabel{7.2}{{{II}}{5}{}{AMS.17}{}}
\newlabel{7.3}{{{D}}{5}{}{AMS.18}{}}
